<?xml version="1.0" encoding="utf-8"?>
<!-- Generator: Adobe Illustrator 23.0.0, SVG Export Plug-In . SVG Version: 6.00 Build 0)  -->
<svg version="1.1" id="Layer_1" xmlns="http://www.w3.org/2000/svg" xmlns:xlink="http://www.w3.org/1999/xlink" x="0px" y="0px"
	 viewBox="0 0 1182.6 606.6" style="enable-background:new 0 0 1182.6 606.6;" xml:space="preserve">
<style type="text/css">
	.st0{display:none;}
	.st1{display:inline;fill:#4598FE;}
	.st2{display:inline;fill:#031E49;}
	.st3{display:inline;}
	.st4{fill:#031E49;}
	.st5{fill:none;}
	.st6{fill:#4598FE;}
	.st7{fill:#FFFFFF;}
	.st8{display:inline;fill:#EE0405;}
	.st9{display:inline;fill:#FFFDFE;}
	.st10{fill:#FFFDFE;}
	.st11{fill:#EE0405;}
	.st12{display:inline;fill:#2D4046;}
	.st13{fill:#2D4046;}
	.st14{display:none;fill:#FFFFFF;}
	.st15{fill:#69A0FB;}
	.st16{fill:#0857C0;}
</style>
<g class="st0">
	<rect x="-412.4" y="-694.6" class="st1" width="2000" height="2000"/>
	<rect x="-412.4" y="348.1" class="st2" width="2000" height="957.3"/>
	<g class="st3">
		<g>
			<path class="st4" d="M72.4,120.5H62.2l-4.2-9.3l-4.2-9.3l-11-24.3l-11,24.3h14.1l4.2,9.3H27.6l-4.2,9.3H13.2l24.5-54.3h10.2
				L72.4,120.5z"/>
			<path class="st4" d="M139.5,91.5c2.1,1.5,3.7,3.3,5,5.6c1.2,2.3,1.9,4.8,1.9,7.4v0.2c0,2.2-0.4,4.2-1.2,6.2c-0.8,1.9-2,3.6-3.4,5
				c-1.5,1.4-3.1,2.5-5,3.4c-1.9,0.8-4,1.2-6.1,1.2h-15.4l3.7-9.3h11.7c1.8,0,3.3-0.6,4.6-1.9c1.3-1.3,1.9-2.8,1.9-4.6v-0.2
				c0-1.8-0.6-3.3-1.9-4.6c-1.3-1.3-2.8-1.9-4.6-1.9h-3.8h-15.2v13.2v9.3h-9.3V98v-9.3V66.2h24.5c2.2,0,4.2,0.4,6.2,1.2s3.6,2,5,3.4
				c1.4,1.5,2.5,3.1,3.4,5c0.8,1.9,1.2,4,1.2,6.1v0.2c0,1.8-0.3,3.4-0.8,5C141.2,88.8,140.5,90.2,139.5,91.5z M133.2,82
				c0-1.8-0.6-3.3-1.9-4.6c-1.3-1.3-2.8-1.9-4.6-1.9h-15.2v13.2h15.2c1.8,0,3.3-0.6,4.6-1.9c1.3-1.3,1.9-2.8,1.9-4.6V82z"/>
			<path class="st4" d="M212.3,105c0,2.5-0.4,4.8-1.2,6.9s-2,3.8-3.5,5.2s-3.4,2.5-5.5,3.3c-2.2,0.8-4.6,1.2-7.3,1.2
				c-4.3,0-8.1-0.7-11.5-2.1c-3.4-1.4-6.1-2.9-8.3-4.7l6.4-6.4c1.7,1.5,3.6,2.7,5.7,3.6c1.3,0.5,2.5,0.8,3.6,1
				c1.1,0.2,2.1,0.2,2.8,0.2c1.3,0,2.6-0.2,3.7-0.5c1.1-0.3,2.1-0.8,2.9-1.4c1.8-1.3,2.6-3,2.6-5.1c0-1.3-0.5-2.5-1.4-3.5
				c-0.7-0.8-1.7-1.5-2.8-2c-0.9-0.5-1.9-0.9-3-1.2c-1-0.3-2-0.6-2.8-0.8c-0.3-0.1-0.5-0.2-0.7-0.2s-0.4-0.1-0.5-0.2
				c-0.1,0-0.3,0-0.5-0.2c-1.1-0.3-2.7-0.8-4.7-1.6c-2-0.8-4.1-1.8-6.1-3.2c-4.7-3.2-7.1-7-7.1-11.6c0-3,0.5-5.6,1.6-7.7
				s2.4-3.8,4.2-5.1s3.6-2.3,5.7-2.8s4.2-0.8,6.2-0.8c3.7,0,6.8,0.4,9.4,1.3s4.5,1.8,6,2.6c0.8,0.5,1.4,0.9,2,1.4
				c0.5,0.4,1,0.8,1.4,1.2l-6.6,6.7c-1.4-1.4-2.8-2.5-4.3-3.2c-2.2-1-4.5-1.5-6.8-1.5c-1,0-2.1,0.1-3.1,0.4c-1,0.3-1.9,0.6-2.7,1
				c-2.3,1.4-3.4,3.2-3.4,5.5c0,1.4,0.5,2.6,1.4,3.6c0.7,0.8,1.6,1.5,2.8,2.1c1,0.5,2,0.9,3.1,1.2c1.1,0.3,2.1,0.6,3,0.8l0.9,0.2
				c0.3,0.1,0.8,0.3,1.5,0.5c0.7,0.2,1.6,0.5,2.6,0.9s2,0.9,3.2,1.5c1.2,0.6,2.3,1.2,3.5,2C209.8,96.6,212.3,100.5,212.3,105z"/>
			<path class="st4" d="M270.8,65.1c3.9,0,7.5,0.7,11,2.2c3.4,1.5,6.4,3.5,9,6s4.6,5.6,6,9c1.5,3.4,2.2,7.1,2.2,11
				c0,3.9-0.7,7.5-2.2,11c-1.5,3.4-3.5,6.4-6,9s-5.6,4.6-9,6c-3.4,1.5-7.1,2.2-11,2.2s-7.5-0.7-11-2.2c-3.4-1.5-6.4-3.5-9-6
				c-2.6-2.6-4.6-5.5-6-9c-1.5-3.4-2.2-7.1-2.2-11c0-3.9,0.7-7.5,2.2-11c1.5-3.4,3.5-6.4,6-9s5.6-4.6,9-6
				C263.2,65.8,266.9,65.1,270.8,65.1z M270.8,74.4c-2.5,0-4.9,0.5-7.2,1.4c-2.3,1-4.3,2.3-6.1,4.2c-1.8,1.8-3.2,3.8-4.2,6.1
				c-1,2.3-1.4,4.7-1.4,7.2s0.5,5,1.4,7.3c1,2.3,2.3,4.4,4.2,6.2c1.8,1.8,3.8,3.2,6.1,4.1s4.7,1.4,7.2,1.4s5-0.5,7.3-1.4
				c2.3-0.9,4.3-2.3,6.2-4.1s3.2-3.9,4.1-6.2s1.4-4.7,1.4-7.3s-0.5-4.9-1.4-7.2c-0.9-2.3-2.3-4.3-4.1-6.1s-3.9-3.2-6.2-4.2
				C275.7,74.8,273.3,74.4,270.8,74.4z"/>
			<path class="st4" d="M360.6,111.2v9.3h-21.3H330v-9.3V66.3h9.3v44.9H360.6z"/>
			<path class="st4" d="M436.5,66.2v32.6c0,3.2-0.6,6.1-1.8,8.9c-1.2,2.8-2.8,5.2-4.9,7.3c-2.1,2.1-4.5,3.7-7.3,4.9
				c-2.8,1.2-5.7,1.8-8.9,1.8s-6.1-0.6-8.9-1.8c-2.8-1.2-5.2-2.8-7.3-4.9c-2.1-2.1-3.7-4.5-4.9-7.3c-1.2-2.8-1.8-5.7-1.8-8.9V66.2
				h9.3v32.6c0,1.8,0.3,3.5,1,5.2c0.7,1.6,1.7,3.1,3,4.4c1.3,1.3,2.8,2.3,4.4,3c1.6,0.7,3.3,1,5.2,1c3.7,0,6.9-1.3,9.5-4
				c1.3-1.3,2.3-2.8,3-4.4c0.7-1.6,1-3.3,1-5.2V66.2L436.5,66.2L436.5,66.2z"/>
			<path class="st4" d="M507.9,75.5H492v45h-9.3v-45h-16v-9.3h16h9.3h15.9L507.9,75.5L507.9,75.5z"/>
			<path class="st4" d="M547.8,75.5v13.2H568l2.3,9.3h-22.6v13.2H575v9.3h-36.5V66.2H575v9.3L547.8,75.5L547.8,75.5z"/>
			<path class="st4" d="M660.8,66.1v54.3h-9.3V81.9l-17.9,27.7l-17.8-27.7v38.5h-9.3V66.1h10.2l17,26.4l17.1-26.4H660.8z"/>
			<path class="st4" d="M701.9,75.5v13.2h20.2l2.3,9.3h-22.6v13.2h27.2v9.3h-36.5V66.2h36.5v9.3L701.9,75.5L701.9,75.5z"/>
			<path class="st4" d="M801.6,66.1v54.3h-10.1l-21.8-37.1v37.1h-9.3V66.1h10.1l21.8,37.1V66.1H801.6z"/>
			<path class="st4" d="M871.6,105c0,2.5-0.4,4.8-1.2,6.9s-2,3.8-3.5,5.2s-3.4,2.5-5.5,3.3c-2.2,0.8-4.6,1.2-7.3,1.2
				c-4.3,0-8.1-0.7-11.5-2.1c-3.4-1.4-6.1-2.9-8.3-4.7l6.4-6.4c1.7,1.5,3.6,2.7,5.7,3.6c1.3,0.5,2.5,0.8,3.6,1
				c1.1,0.2,2.1,0.2,2.8,0.2c1.3,0,2.6-0.2,3.7-0.5c1.1-0.3,2.1-0.8,2.9-1.4c1.8-1.3,2.6-3,2.6-5.1c0-1.3-0.5-2.5-1.4-3.5
				c-0.7-0.8-1.7-1.5-2.8-2c-0.9-0.5-1.9-0.9-2.9-1.2c-1-0.3-2-0.6-2.8-0.8c-0.3-0.1-0.5-0.2-0.7-0.2s-0.4-0.1-0.5-0.2
				c-0.1,0-0.3,0-0.5-0.2c-1.1-0.3-2.7-0.8-4.7-1.6c-2-0.8-4.1-1.8-6.1-3.2c-4.7-3.2-7.1-7-7.1-11.6c0-3,0.5-5.6,1.6-7.7
				c1.1-2.1,2.4-3.8,4.2-5.1c1.7-1.3,3.6-2.3,5.7-2.8s4.2-0.8,6.2-0.8c3.7,0,6.8,0.4,9.4,1.3s4.6,1.8,6.1,2.6c0.8,0.5,1.4,0.9,2,1.4
				c0.5,0.4,1,0.8,1.4,1.2l-6.6,6.7c-1.4-1.4-2.8-2.5-4.3-3.2c-2.2-1-4.4-1.5-6.8-1.5c-1,0-2.1,0.1-3.1,0.4s-1.9,0.6-2.7,1
				c-2.3,1.4-3.4,3.2-3.4,5.5c0,1.4,0.5,2.6,1.4,3.6c0.7,0.8,1.6,1.5,2.8,2.1c1,0.5,2,0.9,3.1,1.2c1.1,0.3,2.1,0.6,3,0.8l0.9,0.2
				c0.3,0.1,0.8,0.3,1.5,0.5c0.7,0.2,1.6,0.5,2.6,0.9c1,0.4,2.1,0.9,3.2,1.5c1.2,0.6,2.3,1.2,3.4,2
				C869.1,96.6,871.6,100.5,871.6,105z"/>
			<path class="st4" d="M904.6,120.5v-9.3h9.3v9.3H904.6z"/>
			<path class="st4" d="M994.7,113.2c-2.6,2.6-5.6,4.6-9,6.1c-3.4,1.5-7.1,2.2-11,2.2c-3.9,0-7.5-0.7-11-2.2c-3.4-1.5-6.4-3.5-9-6
				c-2.6-2.6-4.6-5.5-6.1-9c-1.5-3.4-2.2-7.1-2.2-11c0-3.9,0.7-7.5,2.2-11c1.5-3.4,3.5-6.4,6.1-9s5.6-4.6,9-6
				c3.4-1.5,7.1-2.2,11-2.2c3.9,0,7.6,0.7,11,2.2c3.4,1.5,6.4,3.5,9,6.1l-6.6,6.6c-1.8-1.8-3.8-3.2-6.1-4.2s-4.7-1.4-7.3-1.4
				c-2.5,0-4.9,0.5-7.2,1.4c-2.3,1-4.3,2.3-6.1,4.2c-1.8,1.8-3.2,3.8-4.2,6.1c-1,2.3-1.4,4.7-1.4,7.2s0.5,5,1.4,7.3
				c1,2.3,2.3,4.4,4.2,6.2c1.8,1.8,3.8,3.2,6.1,4.1s4.7,1.4,7.2,1.4c2.6,0,5-0.5,7.3-1.4c2.3-0.9,4.3-2.3,6.1-4.1L994.7,113.2z"/>
			<path class="st4" d="M1048.4,65.1c3.9,0,7.5,0.7,11,2.2c3.4,1.5,6.4,3.5,9,6c2.6,2.6,4.6,5.6,6.1,9c1.5,3.4,2.2,7.1,2.2,11
				c0,3.9-0.7,7.5-2.2,11c-1.5,3.4-3.5,6.4-6.1,9s-5.6,4.6-9,6c-3.4,1.5-7.1,2.2-11,2.2s-7.5-0.7-11-2.2c-3.4-1.5-6.4-3.5-9-6
				c-2.6-2.6-4.6-5.5-6.1-9c-1.5-3.4-2.2-7.1-2.2-11c0-3.9,0.7-7.5,2.2-11c1.5-3.4,3.5-6.4,6.1-9s5.6-4.6,9-6
				C1040.9,65.8,1044.5,65.1,1048.4,65.1z M1048.4,74.4c-2.5,0-4.9,0.5-7.2,1.4c-2.3,1-4.3,2.3-6.1,4.2c-1.8,1.8-3.2,3.8-4.2,6.1
				c-1,2.3-1.4,4.7-1.4,7.2s0.5,5,1.4,7.3c1,2.3,2.3,4.4,4.2,6.2c1.8,1.8,3.8,3.2,6.1,4.1s4.7,1.4,7.2,1.4c2.5,0,4.9-0.5,7.3-1.4
				c2.3-0.9,4.3-2.3,6.2-4.1s3.2-3.9,4.1-6.2c0.9-2.3,1.4-4.7,1.4-7.3s-0.5-4.9-1.4-7.2s-2.3-4.3-4.1-6.1c-1.8-1.8-3.9-3.2-6.2-4.2
				C1053.4,74.8,1051,74.4,1048.4,74.4z"/>
			<path class="st4" d="M1162,66.1v54.3h-9.3V81.9l-17.9,27.7L1117,81.9v38.5h-9.3V66.1h10.2l17,26.4l17.1-26.4H1162z"/>
		</g>
		<g>
			<polygon class="st5" points="414.8,-386.2 414.8,-189.6 503.4,-311.3 			"/>
			<polygon class="st4" points="614.4,-314.9 560,-314.9 586.9,-290.6 			"/>
			<path class="st4" d="M658.8-328l-71.8-98l-61.2,84l15.9,13.3l45.4-62.3l56,76.2l-34.8,28.3l-21.2,17.3l-20.6-17.3L394.1-430.7
				v300.1L586.9,9.2l194.1-139.9v-299.9L658.8-328z M414.8-386.2l88.6,74.9l-88.6,121.7V-386.2z M760.4-386.3v196.8l-79.9-108.5
				l-15.9,13.3l102.1,138.8L586.9-16.1L408.4-145.8l110.8-152.1l48.4,39.6L547.1-90.7l39.8,29.8l39.7-29.3l-19.3-168.8"/>
		</g>
	</g>
	<g class="st3">
		<g>
			<g>
				<path class="st6" d="M72.4,1060.5H62.2l-4.2-9.3l-4.2-9.3l-11-24.3l-11,24.3h14.1l4.2,9.3H27.6l-4.2,9.3H13.2l24.5-54.3h10.2
					L72.4,1060.5z"/>
				<path class="st6" d="M139.5,1031.5c2.1,1.4,3.7,3.3,5,5.6c1.2,2.3,1.9,4.8,1.9,7.4v0.2c0,2.2-0.4,4.2-1.2,6.2
					c-0.8,1.9-2,3.6-3.4,5c-1.5,1.4-3.1,2.6-5,3.4c-1.9,0.8-4,1.2-6.1,1.2h-15.4l3.7-9.3h11.7c1.8,0,3.3-0.6,4.6-1.9
					c1.3-1.3,1.9-2.8,1.9-4.6v-0.2c0-1.8-0.6-3.3-1.9-4.6c-1.3-1.3-2.8-1.9-4.6-1.9h-3.8h-15.2v13.2v9.3h-9.3V1038v-9.3v-22.5h24.5
					c2.2,0,4.2,0.4,6.2,1.2s3.6,2,5,3.4c1.4,1.4,2.5,3.1,3.4,5c0.8,1.9,1.2,3.9,1.2,6.1v0.2c0,1.8-0.3,3.4-0.8,5
					S140.5,1030.2,139.5,1031.5z M133.2,1022c0-1.8-0.6-3.3-1.9-4.6c-1.3-1.3-2.8-1.9-4.6-1.9h-15.2v13.2h15.2
					c1.8,0,3.3-0.6,4.6-1.9c1.3-1.3,1.9-2.8,1.9-4.6V1022z"/>
				<path class="st6" d="M212.3,1045c0,2.5-0.4,4.8-1.2,6.9s-2,3.8-3.5,5.2c-1.5,1.4-3.4,2.5-5.5,3.3c-2.2,0.8-4.6,1.2-7.3,1.2
					c-4.3,0-8.1-0.7-11.5-2.1c-3.4-1.4-6.1-2.9-8.3-4.7l6.4-6.4c1.7,1.6,3.6,2.7,5.7,3.6c1.3,0.5,2.5,0.8,3.6,1
					c1.1,0.2,2.1,0.2,2.8,0.2c1.3,0,2.6-0.2,3.7-0.5c1.1-0.3,2.1-0.8,2.9-1.4c1.8-1.3,2.6-3,2.6-5.1c0-1.3-0.5-2.4-1.4-3.5
					c-0.7-0.8-1.7-1.5-2.8-2c-0.9-0.5-1.9-0.9-3-1.2c-1-0.3-2-0.6-2.8-0.8c-0.3-0.1-0.5-0.2-0.7-0.2c-0.2,0-0.4-0.1-0.5-0.2
					c-0.1,0-0.3-0.1-0.5-0.2c-1.1-0.3-2.7-0.8-4.7-1.6c-2-0.8-4.1-1.8-6.1-3.2c-4.7-3.2-7.1-7-7.1-11.6c0-3.1,0.5-5.6,1.6-7.7
					s2.4-3.8,4.2-5.1s3.6-2.3,5.7-2.8s4.2-0.8,6.2-0.8c3.7,0,6.8,0.4,9.4,1.3s4.5,1.8,6,2.6c0.8,0.5,1.4,0.9,2,1.4
					c0.5,0.4,1,0.8,1.4,1.2l-6.6,6.7c-1.4-1.4-2.8-2.4-4.3-3.2c-2.2-1-4.5-1.6-6.8-1.6c-1,0-2.1,0.1-3.1,0.4c-1,0.3-1.9,0.6-2.7,1
					c-2.3,1.4-3.4,3.2-3.4,5.5c0,1.4,0.5,2.6,1.4,3.6c0.7,0.8,1.6,1.5,2.8,2.1c1,0.5,2,0.9,3.1,1.2c1.1,0.3,2.1,0.6,3,0.8l0.9,0.2
					c0.3,0.1,0.8,0.3,1.5,0.5c0.7,0.2,1.6,0.5,2.6,0.9s2,0.9,3.2,1.5c1.2,0.6,2.3,1.2,3.5,2C209.8,1036.6,212.3,1040.5,212.3,1045z"
					/>
				<path class="st6" d="M270.8,1005.1c3.9,0,7.5,0.7,11,2.2c3.4,1.5,6.4,3.5,9,6.1c2.6,2.6,4.6,5.6,6,9c1.5,3.4,2.2,7.1,2.2,11
					s-0.7,7.5-2.2,11c-1.5,3.4-3.5,6.4-6,9s-5.6,4.6-9,6.1c-3.4,1.5-7.1,2.2-11,2.2s-7.5-0.7-11-2.2c-3.4-1.5-6.4-3.5-9-6.1
					c-2.6-2.6-4.6-5.6-6-9c-1.5-3.4-2.2-7.1-2.2-11s0.7-7.5,2.2-11c1.5-3.4,3.5-6.4,6-9c2.6-2.6,5.6-4.6,9-6.1
					C263.2,1005.8,266.9,1005.1,270.8,1005.1z M270.8,1014.4c-2.5,0-4.9,0.5-7.2,1.4c-2.3,1-4.3,2.3-6.1,4.2
					c-1.8,1.8-3.2,3.8-4.2,6.1c-1,2.3-1.4,4.7-1.4,7.2c0,2.5,0.5,4.9,1.4,7.3c1,2.3,2.3,4.4,4.2,6.2c1.8,1.8,3.8,3.2,6.1,4.1
					c2.3,0.9,4.7,1.4,7.2,1.4s5-0.5,7.3-1.4c2.3-0.9,4.3-2.3,6.2-4.1c1.8-1.8,3.2-3.9,4.1-6.2s1.4-4.7,1.4-7.3s-0.5-4.9-1.4-7.2
					c-0.9-2.3-2.3-4.3-4.1-6.1c-1.8-1.8-3.9-3.2-6.2-4.2C275.7,1014.8,273.3,1014.4,270.8,1014.4z"/>
				<path class="st6" d="M360.6,1051.2v9.3h-21.3H330v-9.3v-44.9h9.3v44.9H360.6z"/>
				<path class="st6" d="M436.5,1006.2v32.6c0,3.2-0.6,6.1-1.8,8.9c-1.2,2.8-2.8,5.2-4.9,7.3c-2.1,2.1-4.5,3.7-7.3,4.9
					c-2.8,1.2-5.7,1.8-8.9,1.8s-6.1-0.6-8.9-1.8c-2.8-1.2-5.2-2.8-7.3-4.9c-2.1-2.1-3.7-4.5-4.9-7.3c-1.2-2.8-1.8-5.7-1.8-8.9v-32.6
					h9.3v32.6c0,1.8,0.3,3.5,1,5.2s1.7,3.1,3,4.4c1.3,1.3,2.8,2.3,4.4,2.9c1.6,0.7,3.3,1,5.2,1c3.7,0,6.9-1.3,9.5-3.9
					c1.3-1.3,2.3-2.8,3-4.4c0.7-1.6,1-3.3,1-5.2v-32.6L436.5,1006.2L436.5,1006.2z"/>
				<path class="st6" d="M507.9,1015.5H492v45h-9.3v-45h-16v-9.3h16h9.3h15.9L507.9,1015.5L507.9,1015.5z"/>
				<path class="st6" d="M547.8,1015.5v13.2H568l2.3,9.3h-22.6v13.2H575v9.3h-36.5v-54.3H575v9.3L547.8,1015.5L547.8,1015.5z"/>
				<path class="st7" d="M660.8,1006.1v54.3h-9.3v-38.5l-17.9,27.7l-17.8-27.7v38.5h-9.3v-54.3h10.2l17,26.4l17.1-26.4H660.8z"/>
				<path class="st7" d="M701.9,1015.5v13.2h20.2l2.3,9.3h-22.6v13.2h27.2v9.3h-36.5v-54.3h36.5v9.3L701.9,1015.5L701.9,1015.5z"/>
				<path class="st7" d="M801.6,1006.1v54.3h-10.1l-21.8-37.1v37.1h-9.3v-54.3h10.1l21.8,37.1v-37.1H801.6z"/>
				<path class="st7" d="M871.6,1045c0,2.5-0.4,4.8-1.2,6.9s-2,3.8-3.5,5.2c-1.5,1.4-3.4,2.5-5.5,3.3c-2.2,0.8-4.6,1.2-7.3,1.2
					c-4.3,0-8.1-0.7-11.5-2.1c-3.4-1.4-6.1-2.9-8.3-4.7l6.4-6.4c1.7,1.6,3.6,2.7,5.7,3.6c1.3,0.5,2.5,0.8,3.6,1
					c1.1,0.2,2.1,0.2,2.8,0.2c1.3,0,2.6-0.2,3.7-0.5c1.1-0.3,2.1-0.8,2.9-1.4c1.8-1.3,2.6-3,2.6-5.1c0-1.3-0.5-2.4-1.4-3.5
					c-0.7-0.8-1.7-1.5-2.8-2c-0.9-0.5-1.9-0.9-2.9-1.2c-1-0.3-2-0.6-2.8-0.8c-0.3-0.1-0.5-0.2-0.7-0.2c-0.2,0-0.4-0.1-0.5-0.2
					c-0.1,0-0.3-0.1-0.5-0.2c-1.1-0.3-2.7-0.8-4.7-1.6c-2-0.8-4.1-1.8-6.1-3.2c-4.7-3.2-7.1-7-7.1-11.6c0-3.1,0.5-5.6,1.6-7.7
					c1.1-2.1,2.4-3.8,4.2-5.1c1.7-1.3,3.6-2.3,5.7-2.8s4.2-0.8,6.2-0.8c3.7,0,6.8,0.4,9.4,1.3s4.6,1.8,6.1,2.6
					c0.8,0.5,1.4,0.9,2,1.4c0.5,0.4,1,0.8,1.4,1.2l-6.6,6.7c-1.4-1.4-2.8-2.4-4.3-3.2c-2.2-1-4.4-1.6-6.8-1.6c-1,0-2.1,0.1-3.1,0.4
					s-1.9,0.6-2.7,1c-2.3,1.4-3.4,3.2-3.4,5.5c0,1.4,0.5,2.6,1.4,3.6c0.7,0.8,1.6,1.5,2.8,2.1c1,0.5,2,0.9,3.1,1.2
					c1.1,0.3,2.1,0.6,3,0.8l0.9,0.2c0.3,0.1,0.8,0.3,1.5,0.5c0.7,0.2,1.6,0.5,2.6,0.9c1,0.4,2.1,0.9,3.2,1.5c1.2,0.6,2.3,1.2,3.4,2
					C869.1,1036.6,871.6,1040.5,871.6,1045z"/>
				<path class="st7" d="M904.6,1060.5v-9.3h9.3v9.3H904.6z"/>
				<path class="st7" d="M994.7,1053.2c-2.6,2.6-5.6,4.6-9,6.1s-7.1,2.2-11,2.2c-3.9,0-7.5-0.7-11-2.2s-6.4-3.5-9-6.1
					c-2.6-2.6-4.6-5.6-6.1-9c-1.5-3.4-2.2-7.1-2.2-11s0.7-7.5,2.2-11s3.5-6.4,6.1-9c2.6-2.6,5.6-4.6,9-6.1c3.4-1.5,7.1-2.2,11-2.2
					c3.9,0,7.6,0.7,11,2.2s6.4,3.5,9,6.1l-6.6,6.6c-1.8-1.8-3.8-3.2-6.1-4.2c-2.3-1-4.7-1.4-7.3-1.4c-2.5,0-4.9,0.5-7.2,1.4
					c-2.3,1-4.3,2.3-6.1,4.2c-1.8,1.8-3.2,3.8-4.2,6.1c-1,2.3-1.4,4.7-1.4,7.2c0,2.5,0.5,4.9,1.4,7.3c1,2.3,2.3,4.4,4.2,6.2
					c1.8,1.8,3.8,3.2,6.1,4.1c2.3,0.9,4.7,1.4,7.2,1.4c2.6,0,5-0.5,7.3-1.4c2.3-0.9,4.3-2.3,6.1-4.1L994.7,1053.2z"/>
				<path class="st7" d="M1048.4,1005.1c3.9,0,7.5,0.7,11,2.2s6.4,3.5,9,6.1c2.6,2.6,4.6,5.6,6.1,9c1.5,3.4,2.2,7.1,2.2,11
					s-0.7,7.5-2.2,11s-3.5,6.4-6.1,9c-2.6,2.6-5.6,4.6-9,6.1c-3.4,1.5-7.1,2.2-11,2.2s-7.5-0.7-11-2.2s-6.4-3.5-9-6.1
					c-2.6-2.6-4.6-5.6-6.1-9c-1.5-3.4-2.2-7.1-2.2-11s0.7-7.5,2.2-11s3.5-6.4,6.1-9c2.6-2.6,5.6-4.6,9-6.1
					C1040.9,1005.8,1044.5,1005.1,1048.4,1005.1z M1048.4,1014.4c-2.5,0-4.9,0.5-7.2,1.4c-2.3,1-4.3,2.3-6.1,4.2
					c-1.8,1.8-3.2,3.8-4.2,6.1c-1,2.3-1.4,4.7-1.4,7.2c0,2.5,0.5,4.9,1.4,7.3c1,2.3,2.3,4.4,4.2,6.2c1.8,1.8,3.8,3.2,6.1,4.1
					c2.3,0.9,4.7,1.4,7.2,1.4c2.5,0,4.9-0.5,7.3-1.4c2.3-0.9,4.3-2.3,6.2-4.1c1.8-1.8,3.2-3.9,4.1-6.2c0.9-2.3,1.4-4.7,1.4-7.3
					s-0.5-4.9-1.4-7.2s-2.3-4.3-4.1-6.1c-1.8-1.8-3.9-3.2-6.2-4.2C1053.4,1014.8,1051,1014.4,1048.4,1014.4z"/>
				<path class="st7" d="M1162,1006.1v54.3h-9.3v-38.5l-17.9,27.7l-17.8-27.7v38.5h-9.3v-54.3h10.2l17,26.4l17.1-26.4H1162z"/>
			</g>
			<g>
				<polygon class="st6" points="614.4,625.1 560,625.1 586.9,649.4 				"/>
				<path class="st6" d="M658.8,612l-71.8-98l-61.2,84l15.9,13.3l45.4-62.3l56,76.2l-34.8,28.3l-21.2,17.3l-20.6-17.3L394.1,509.3
					v300.1l192.8,139.8l194.2-139.9V509.4L658.8,612z M414.8,553.8l88.6,74.9l-88.6,121.7V553.8z M760.4,553.7v196.8l-79.9-108.5
					l-15.9,13.3l102.1,138.8L586.9,923.9L408.4,794.2l110.8-152.1l48.4,39.6l-20.5,167.6l39.8,29.8l39.7-29.3l-19.3-168.8"/>
			</g>
		</g>
	</g>
</g>
<g class="st0">
	<rect x="-412.4" y="-694.6" class="st8" width="2000" height="2000"/>
	<rect x="-412.4" y="348.1" class="st9" width="2000" height="957.3"/>
	<g class="st3">
		<g>
			<path class="st10" d="M72.4,120.5H62.2l-4.2-9.3l-4.2-9.3l-11-24.3l-11,24.3h14.1l4.2,9.3H27.6l-4.2,9.3H13.2l24.5-54.3h10.2
				L72.4,120.5z"/>
			<path class="st10" d="M139.5,91.5c2.1,1.5,3.7,3.3,5,5.6c1.2,2.3,1.9,4.8,1.9,7.4v0.2c0,2.2-0.4,4.2-1.2,6.2
				c-0.8,1.9-2,3.6-3.4,5c-1.5,1.4-3.1,2.5-5,3.4c-1.9,0.8-4,1.2-6.1,1.2h-15.4l3.7-9.3h11.7c1.8,0,3.3-0.6,4.6-1.9
				c1.3-1.3,1.9-2.8,1.9-4.6v-0.2c0-1.8-0.6-3.3-1.9-4.6c-1.3-1.3-2.8-1.9-4.6-1.9h-3.8h-15.2v13.2v9.3h-9.3V98v-9.3V66.2h24.5
				c2.2,0,4.2,0.4,6.2,1.2s3.6,2,5,3.4c1.4,1.5,2.5,3.1,3.4,5c0.8,1.9,1.2,4,1.2,6.1v0.2c0,1.8-0.3,3.4-0.8,5
				C141.2,88.8,140.5,90.2,139.5,91.5z M133.2,82c0-1.8-0.6-3.3-1.9-4.6c-1.3-1.3-2.8-1.9-4.6-1.9h-15.2v13.2h15.2
				c1.8,0,3.3-0.6,4.6-1.9c1.3-1.3,1.9-2.8,1.9-4.6V82z"/>
			<path class="st10" d="M212.3,105c0,2.5-0.4,4.8-1.2,6.9s-2,3.8-3.5,5.2s-3.4,2.5-5.5,3.3c-2.2,0.8-4.6,1.2-7.3,1.2
				c-4.3,0-8.1-0.7-11.5-2.1c-3.4-1.4-6.1-2.9-8.3-4.7l6.4-6.4c1.7,1.5,3.6,2.7,5.7,3.6c1.3,0.5,2.5,0.8,3.6,1
				c1.1,0.2,2.1,0.2,2.8,0.2c1.3,0,2.6-0.2,3.7-0.5c1.1-0.3,2.1-0.8,2.9-1.4c1.8-1.3,2.6-3,2.6-5.1c0-1.3-0.5-2.5-1.4-3.5
				c-0.7-0.8-1.7-1.5-2.8-2c-0.9-0.5-1.9-0.9-3-1.2c-1-0.3-2-0.6-2.8-0.8c-0.3-0.1-0.5-0.2-0.7-0.2s-0.4-0.1-0.5-0.2
				c-0.1,0-0.3,0-0.5-0.2c-1.1-0.3-2.7-0.8-4.7-1.6c-2-0.8-4.1-1.8-6.1-3.2c-4.7-3.2-7.1-7-7.1-11.6c0-3,0.5-5.6,1.6-7.7
				s2.4-3.8,4.2-5.1s3.6-2.3,5.7-2.8s4.2-0.8,6.2-0.8c3.7,0,6.8,0.4,9.4,1.3s4.5,1.8,6,2.6c0.8,0.5,1.4,0.9,2,1.4
				c0.5,0.4,1,0.8,1.4,1.2l-6.6,6.7c-1.4-1.4-2.8-2.5-4.3-3.2c-2.2-1-4.5-1.5-6.8-1.5c-1,0-2.1,0.1-3.1,0.4c-1,0.3-1.9,0.6-2.7,1
				c-2.3,1.4-3.4,3.2-3.4,5.5c0,1.4,0.5,2.6,1.4,3.6c0.7,0.8,1.6,1.5,2.8,2.1c1,0.5,2,0.9,3.1,1.2c1.1,0.3,2.1,0.6,3,0.8l0.9,0.2
				c0.3,0.1,0.8,0.3,1.5,0.5c0.7,0.2,1.6,0.5,2.6,0.9s2,0.9,3.2,1.5c1.2,0.6,2.3,1.2,3.5,2C209.8,96.6,212.3,100.5,212.3,105z"/>
			<path class="st10" d="M270.8,65.1c3.9,0,7.5,0.7,11,2.2c3.4,1.5,6.4,3.5,9,6s4.6,5.6,6,9c1.5,3.4,2.2,7.1,2.2,11
				c0,3.9-0.7,7.5-2.2,11c-1.5,3.4-3.5,6.4-6,9s-5.6,4.6-9,6c-3.4,1.5-7.1,2.2-11,2.2s-7.5-0.7-11-2.2c-3.4-1.5-6.4-3.5-9-6
				c-2.6-2.6-4.6-5.5-6-9c-1.5-3.4-2.2-7.1-2.2-11c0-3.9,0.7-7.5,2.2-11c1.5-3.4,3.5-6.4,6-9s5.6-4.6,9-6
				C263.2,65.8,266.9,65.1,270.8,65.1z M270.8,74.4c-2.5,0-4.9,0.5-7.2,1.4c-2.3,1-4.3,2.3-6.1,4.2c-1.8,1.8-3.2,3.8-4.2,6.1
				c-1,2.3-1.4,4.7-1.4,7.2s0.5,5,1.4,7.3c1,2.3,2.3,4.4,4.2,6.2c1.8,1.8,3.8,3.2,6.1,4.1s4.7,1.4,7.2,1.4s5-0.5,7.3-1.4
				c2.3-0.9,4.3-2.3,6.2-4.1s3.2-3.9,4.1-6.2s1.4-4.7,1.4-7.3s-0.5-4.9-1.4-7.2c-0.9-2.3-2.3-4.3-4.1-6.1s-3.9-3.2-6.2-4.2
				C275.7,74.8,273.3,74.4,270.8,74.4z"/>
			<path class="st10" d="M360.6,111.2v9.3h-21.3H330v-9.3V66.3h9.3v44.9H360.6z"/>
			<path class="st10" d="M436.5,66.2v32.6c0,3.2-0.6,6.1-1.8,8.9c-1.2,2.8-2.8,5.2-4.9,7.3c-2.1,2.1-4.5,3.7-7.3,4.9
				c-2.8,1.2-5.7,1.8-8.9,1.8s-6.1-0.6-8.9-1.8c-2.8-1.2-5.2-2.8-7.3-4.9c-2.1-2.1-3.7-4.5-4.9-7.3c-1.2-2.8-1.8-5.7-1.8-8.9V66.2
				h9.3v32.6c0,1.8,0.3,3.5,1,5.2c0.7,1.6,1.7,3.1,3,4.4c1.3,1.3,2.8,2.3,4.4,3c1.6,0.7,3.3,1,5.2,1c3.7,0,6.9-1.3,9.5-4
				c1.3-1.3,2.3-2.8,3-4.4c0.7-1.6,1-3.3,1-5.2V66.2L436.5,66.2L436.5,66.2z"/>
			<path class="st10" d="M507.9,75.5H492v45h-9.3v-45h-16v-9.3h16h9.3h15.9L507.9,75.5L507.9,75.5z"/>
			<path class="st10" d="M547.8,75.5v13.2H568l2.3,9.3h-22.6v13.2H575v9.3h-36.5V66.2H575v9.3L547.8,75.5L547.8,75.5z"/>
			<path class="st10" d="M660.8,66.1v54.3h-9.3V81.9l-17.9,27.7l-17.8-27.7v38.5h-9.3V66.1h10.2l17,26.4l17.1-26.4H660.8z"/>
			<path class="st10" d="M701.9,75.5v13.2h20.2l2.3,9.3h-22.6v13.2h27.2v9.3h-36.5V66.2h36.5v9.3L701.9,75.5L701.9,75.5z"/>
			<path class="st10" d="M801.6,66.1v54.3h-10.1l-21.8-37.1v37.1h-9.3V66.1h10.1l21.8,37.1V66.1H801.6z"/>
			<path class="st10" d="M871.6,105c0,2.5-0.4,4.8-1.2,6.9s-2,3.8-3.5,5.2s-3.4,2.5-5.5,3.3c-2.2,0.8-4.6,1.2-7.3,1.2
				c-4.3,0-8.1-0.7-11.5-2.1c-3.4-1.4-6.1-2.9-8.3-4.7l6.4-6.4c1.7,1.5,3.6,2.7,5.7,3.6c1.3,0.5,2.5,0.8,3.6,1
				c1.1,0.2,2.1,0.2,2.8,0.2c1.3,0,2.6-0.2,3.7-0.5c1.1-0.3,2.1-0.8,2.9-1.4c1.8-1.3,2.6-3,2.6-5.1c0-1.3-0.5-2.5-1.4-3.5
				c-0.7-0.8-1.7-1.5-2.8-2c-0.9-0.5-1.9-0.9-2.9-1.2c-1-0.3-2-0.6-2.8-0.8c-0.3-0.1-0.5-0.2-0.7-0.2s-0.4-0.1-0.5-0.2
				c-0.1,0-0.3,0-0.5-0.2c-1.1-0.3-2.7-0.8-4.7-1.6c-2-0.8-4.1-1.8-6.1-3.2c-4.7-3.2-7.1-7-7.1-11.6c0-3,0.5-5.6,1.6-7.7
				c1.1-2.1,2.4-3.8,4.2-5.1c1.7-1.3,3.6-2.3,5.7-2.8s4.2-0.8,6.2-0.8c3.7,0,6.8,0.4,9.4,1.3s4.6,1.8,6.1,2.6c0.8,0.5,1.4,0.9,2,1.4
				c0.5,0.4,1,0.8,1.4,1.2l-6.6,6.7c-1.4-1.4-2.8-2.5-4.3-3.2c-2.2-1-4.4-1.5-6.8-1.5c-1,0-2.1,0.1-3.1,0.4s-1.9,0.6-2.7,1
				c-2.3,1.4-3.4,3.2-3.4,5.5c0,1.4,0.5,2.6,1.4,3.6c0.7,0.8,1.6,1.5,2.8,2.1c1,0.5,2,0.9,3.1,1.2c1.1,0.3,2.1,0.6,3,0.8l0.9,0.2
				c0.3,0.1,0.8,0.3,1.5,0.5c0.7,0.2,1.6,0.5,2.6,0.9c1,0.4,2.1,0.9,3.2,1.5c1.2,0.6,2.3,1.2,3.4,2
				C869.1,96.6,871.6,100.5,871.6,105z"/>
			<path class="st10" d="M904.6,120.5v-9.3h9.3v9.3H904.6z"/>
			<path class="st10" d="M994.7,113.2c-2.6,2.6-5.6,4.6-9,6.1c-3.4,1.5-7.1,2.2-11,2.2c-3.9,0-7.5-0.7-11-2.2c-3.4-1.5-6.4-3.5-9-6
				c-2.6-2.6-4.6-5.5-6.1-9c-1.5-3.4-2.2-7.1-2.2-11c0-3.9,0.7-7.5,2.2-11c1.5-3.4,3.5-6.4,6.1-9s5.6-4.6,9-6
				c3.4-1.5,7.1-2.2,11-2.2c3.9,0,7.6,0.7,11,2.2c3.4,1.5,6.4,3.5,9,6.1l-6.6,6.6c-1.8-1.8-3.8-3.2-6.1-4.2s-4.7-1.4-7.3-1.4
				c-2.5,0-4.9,0.5-7.2,1.4c-2.3,1-4.3,2.3-6.1,4.2c-1.8,1.8-3.2,3.8-4.2,6.1c-1,2.3-1.4,4.7-1.4,7.2s0.5,5,1.4,7.3
				c1,2.3,2.3,4.4,4.2,6.2c1.8,1.8,3.8,3.2,6.1,4.1s4.7,1.4,7.2,1.4c2.6,0,5-0.5,7.3-1.4c2.3-0.9,4.3-2.3,6.1-4.1L994.7,113.2z"/>
			<path class="st10" d="M1048.4,65.1c3.9,0,7.5,0.7,11,2.2c3.4,1.5,6.4,3.5,9,6c2.6,2.6,4.6,5.6,6.1,9c1.5,3.4,2.2,7.1,2.2,11
				c0,3.9-0.7,7.5-2.2,11c-1.5,3.4-3.5,6.4-6.1,9s-5.6,4.6-9,6c-3.4,1.5-7.1,2.2-11,2.2s-7.5-0.7-11-2.2c-3.4-1.5-6.4-3.5-9-6
				c-2.6-2.6-4.6-5.5-6.1-9c-1.5-3.4-2.2-7.1-2.2-11c0-3.9,0.7-7.5,2.2-11c1.5-3.4,3.5-6.4,6.1-9s5.6-4.6,9-6
				C1040.9,65.8,1044.5,65.1,1048.4,65.1z M1048.4,74.4c-2.5,0-4.9,0.5-7.2,1.4c-2.3,1-4.3,2.3-6.1,4.2c-1.8,1.8-3.2,3.8-4.2,6.1
				c-1,2.3-1.4,4.7-1.4,7.2s0.5,5,1.4,7.3c1,2.3,2.3,4.4,4.2,6.2c1.8,1.8,3.8,3.2,6.1,4.1s4.7,1.4,7.2,1.4c2.5,0,4.9-0.5,7.3-1.4
				c2.3-0.9,4.3-2.3,6.2-4.1s3.2-3.9,4.1-6.2c0.9-2.3,1.4-4.7,1.4-7.3s-0.5-4.9-1.4-7.2s-2.3-4.3-4.1-6.1c-1.8-1.8-3.9-3.2-6.2-4.2
				C1053.4,74.8,1051,74.4,1048.4,74.4z"/>
			<path class="st10" d="M1162,66.1v54.3h-9.3V81.9l-17.9,27.7L1117,81.9v38.5h-9.3V66.1h10.2l17,26.4l17.1-26.4H1162z"/>
		</g>
		<g>
			<polygon class="st10" points="614.4,-314.9 560,-314.9 586.9,-290.6 			"/>
			<path class="st10" d="M658.8-328l-71.8-98l-61.2,84l15.9,13.3l45.4-62.3l56,76.2l-34.8,28.3l-21.2,17.3l-20.6-17.3L394.1-430.7
				v300.1L586.9,9.2l194.1-139.9v-299.9L658.8-328z M414.8-386.2l88.6,74.9l-88.6,121.7V-386.2z M760.4-386.3v196.8l-79.9-108.5
				l-15.9,13.3l102.1,138.8L586.9-16.1L408.4-145.8l110.8-152.1l48.4,39.6L547.1-90.7l39.8,29.8l39.7-29.3l-19.3-168.8"/>
		</g>
	</g>
	<g class="st3">
		<g>
			<g>
				<g>
					<path class="st11" d="M72.4,1060.5H62.2l-4.2-9.3l-4.2-9.3l-11-24.3l-11,24.3h14.1l4.2,9.3H27.6l-4.2,9.3H13.2l24.5-54.3h10.2
						L72.4,1060.5z"/>
					<path class="st11" d="M139.5,1031.5c2.1,1.4,3.7,3.3,5,5.6c1.2,2.3,1.9,4.8,1.9,7.4v0.2c0,2.2-0.4,4.2-1.2,6.2
						c-0.8,1.9-2,3.6-3.4,5c-1.5,1.4-3.1,2.6-5,3.4c-1.9,0.8-4,1.2-6.1,1.2h-15.4l3.7-9.3h11.7c1.8,0,3.3-0.6,4.6-1.9
						c1.3-1.3,1.9-2.8,1.9-4.6v-0.2c0-1.8-0.6-3.3-1.9-4.6c-1.3-1.3-2.8-1.9-4.6-1.9h-3.8h-15.2v13.2v9.3h-9.3V1038v-9.3v-22.5h24.5
						c2.2,0,4.2,0.4,6.2,1.2s3.6,2,5,3.4c1.4,1.4,2.5,3.1,3.4,5c0.8,1.9,1.2,3.9,1.2,6.1v0.2c0,1.8-0.3,3.4-0.8,5
						S140.5,1030.2,139.5,1031.5z M133.2,1022c0-1.8-0.6-3.3-1.9-4.6c-1.3-1.3-2.8-1.9-4.6-1.9h-15.2v13.2h15.2
						c1.8,0,3.3-0.6,4.6-1.9c1.3-1.3,1.9-2.8,1.9-4.6V1022z"/>
					<path class="st11" d="M212.3,1045c0,2.5-0.4,4.8-1.2,6.9s-2,3.8-3.5,5.2c-1.5,1.4-3.4,2.5-5.5,3.3c-2.2,0.8-4.6,1.2-7.3,1.2
						c-4.3,0-8.1-0.7-11.5-2.1c-3.4-1.4-6.1-2.9-8.3-4.7l6.4-6.4c1.7,1.6,3.6,2.7,5.7,3.6c1.3,0.5,2.5,0.8,3.6,1
						c1.1,0.2,2.1,0.2,2.8,0.2c1.3,0,2.6-0.2,3.7-0.5c1.1-0.3,2.1-0.8,2.9-1.4c1.8-1.3,2.6-3,2.6-5.1c0-1.3-0.5-2.4-1.4-3.5
						c-0.7-0.8-1.7-1.5-2.8-2c-0.9-0.5-1.9-0.9-3-1.2c-1-0.3-2-0.6-2.8-0.8c-0.3-0.1-0.5-0.2-0.7-0.2c-0.2,0-0.4-0.1-0.5-0.2
						c-0.1,0-0.3-0.1-0.5-0.2c-1.1-0.3-2.7-0.8-4.7-1.6c-2-0.8-4.1-1.8-6.1-3.2c-4.7-3.2-7.1-7-7.1-11.6c0-3.1,0.5-5.6,1.6-7.7
						s2.4-3.8,4.2-5.1s3.6-2.3,5.7-2.8s4.2-0.8,6.2-0.8c3.7,0,6.8,0.4,9.4,1.3s4.5,1.8,6,2.6c0.8,0.5,1.4,0.9,2,1.4
						c0.5,0.4,1,0.8,1.4,1.2l-6.6,6.7c-1.4-1.4-2.8-2.4-4.3-3.2c-2.2-1-4.5-1.6-6.8-1.6c-1,0-2.1,0.1-3.1,0.4c-1,0.3-1.9,0.6-2.7,1
						c-2.3,1.4-3.4,3.2-3.4,5.5c0,1.4,0.5,2.6,1.4,3.6c0.7,0.8,1.6,1.5,2.8,2.1c1,0.5,2,0.9,3.1,1.2c1.1,0.3,2.1,0.6,3,0.8l0.9,0.2
						c0.3,0.1,0.8,0.3,1.5,0.5c0.7,0.2,1.6,0.5,2.6,0.9s2,0.9,3.2,1.5c1.2,0.6,2.3,1.2,3.5,2C209.8,1036.6,212.3,1040.5,212.3,1045z
						"/>
					<path class="st11" d="M270.8,1005.1c3.9,0,7.5,0.7,11,2.2c3.4,1.5,6.4,3.5,9,6.1c2.6,2.6,4.6,5.6,6,9c1.5,3.4,2.2,7.1,2.2,11
						s-0.7,7.5-2.2,11c-1.5,3.4-3.5,6.4-6,9s-5.6,4.6-9,6.1c-3.4,1.5-7.1,2.2-11,2.2s-7.5-0.7-11-2.2c-3.4-1.5-6.4-3.5-9-6.1
						c-2.6-2.6-4.6-5.6-6-9c-1.5-3.4-2.2-7.1-2.2-11s0.7-7.5,2.2-11c1.5-3.4,3.5-6.4,6-9c2.6-2.6,5.6-4.6,9-6.1
						C263.2,1005.8,266.9,1005.1,270.8,1005.1z M270.8,1014.4c-2.5,0-4.9,0.5-7.2,1.4c-2.3,1-4.3,2.3-6.1,4.2
						c-1.8,1.8-3.2,3.8-4.2,6.1c-1,2.3-1.4,4.7-1.4,7.2c0,2.5,0.5,4.9,1.4,7.3c1,2.3,2.3,4.4,4.2,6.2c1.8,1.8,3.8,3.2,6.1,4.1
						c2.3,0.9,4.7,1.4,7.2,1.4s5-0.5,7.3-1.4c2.3-0.9,4.3-2.3,6.2-4.1c1.8-1.8,3.2-3.9,4.1-6.2s1.4-4.7,1.4-7.3s-0.5-4.9-1.4-7.2
						c-0.9-2.3-2.3-4.3-4.1-6.1c-1.8-1.8-3.9-3.2-6.2-4.2C275.7,1014.8,273.3,1014.4,270.8,1014.4z"/>
					<path class="st11" d="M360.6,1051.2v9.3h-21.3H330v-9.3v-44.9h9.3v44.9H360.6z"/>
					<path class="st11" d="M436.5,1006.2v32.6c0,3.2-0.6,6.1-1.8,8.9c-1.2,2.8-2.8,5.2-4.9,7.3c-2.1,2.1-4.5,3.7-7.3,4.9
						c-2.8,1.2-5.7,1.8-8.9,1.8s-6.1-0.6-8.9-1.8c-2.8-1.2-5.2-2.8-7.3-4.9c-2.1-2.1-3.7-4.5-4.9-7.3c-1.2-2.8-1.8-5.7-1.8-8.9
						v-32.6h9.3v32.6c0,1.8,0.3,3.5,1,5.2s1.7,3.1,3,4.4c1.3,1.3,2.8,2.3,4.4,2.9c1.6,0.7,3.3,1,5.2,1c3.7,0,6.9-1.3,9.5-3.9
						c1.3-1.3,2.3-2.8,3-4.4c0.7-1.6,1-3.3,1-5.2v-32.6L436.5,1006.2L436.5,1006.2z"/>
					<path class="st11" d="M507.9,1015.5H492v45h-9.3v-45h-16v-9.3h16h9.3h15.9L507.9,1015.5L507.9,1015.5z"/>
					<path class="st11" d="M547.8,1015.5v13.2H568l2.3,9.3h-22.6v13.2H575v9.3h-36.5v-54.3H575v9.3L547.8,1015.5L547.8,1015.5z"/>
					<path class="st11" d="M660.8,1006.1v54.3h-9.3v-38.5l-17.9,27.7l-17.8-27.7v38.5h-9.3v-54.3h10.2l17,26.4l17.1-26.4H660.8z"/>
					<path class="st11" d="M701.9,1015.5v13.2h20.2l2.3,9.3h-22.6v13.2h27.2v9.3h-36.5v-54.3h36.5v9.3L701.9,1015.5L701.9,1015.5z"
						/>
					<path class="st11" d="M801.6,1006.1v54.3h-10.1l-21.8-37.1v37.1h-9.3v-54.3h10.1l21.8,37.1v-37.1H801.6z"/>
					<path class="st11" d="M871.6,1045c0,2.5-0.4,4.8-1.2,6.9s-2,3.8-3.5,5.2c-1.5,1.4-3.4,2.5-5.5,3.3c-2.2,0.8-4.6,1.2-7.3,1.2
						c-4.3,0-8.1-0.7-11.5-2.1c-3.4-1.4-6.1-2.9-8.3-4.7l6.4-6.4c1.7,1.6,3.6,2.7,5.7,3.6c1.3,0.5,2.5,0.8,3.6,1
						c1.1,0.2,2.1,0.2,2.8,0.2c1.3,0,2.6-0.2,3.7-0.5c1.1-0.3,2.1-0.8,2.9-1.4c1.8-1.3,2.6-3,2.6-5.1c0-1.3-0.5-2.4-1.4-3.5
						c-0.7-0.8-1.7-1.5-2.8-2c-0.9-0.5-1.9-0.9-2.9-1.2c-1-0.3-2-0.6-2.8-0.8c-0.3-0.1-0.5-0.2-0.7-0.2c-0.2,0-0.4-0.1-0.5-0.2
						c-0.1,0-0.3-0.1-0.5-0.2c-1.1-0.3-2.7-0.8-4.7-1.6c-2-0.8-4.1-1.8-6.1-3.2c-4.7-3.2-7.1-7-7.1-11.6c0-3.1,0.5-5.6,1.6-7.7
						c1.1-2.1,2.4-3.8,4.2-5.1c1.7-1.3,3.6-2.3,5.7-2.8s4.2-0.8,6.2-0.8c3.7,0,6.8,0.4,9.4,1.3s4.6,1.8,6.1,2.6
						c0.8,0.5,1.4,0.9,2,1.4c0.5,0.4,1,0.8,1.4,1.2l-6.6,6.7c-1.4-1.4-2.8-2.4-4.3-3.2c-2.2-1-4.4-1.6-6.8-1.6c-1,0-2.1,0.1-3.1,0.4
						s-1.9,0.6-2.7,1c-2.3,1.4-3.4,3.2-3.4,5.5c0,1.4,0.5,2.6,1.4,3.6c0.7,0.8,1.6,1.5,2.8,2.1c1,0.5,2,0.9,3.1,1.2
						c1.1,0.3,2.1,0.6,3,0.8l0.9,0.2c0.3,0.1,0.8,0.3,1.5,0.5c0.7,0.2,1.6,0.5,2.6,0.9c1,0.4,2.1,0.9,3.2,1.5c1.2,0.6,2.3,1.2,3.4,2
						C869.1,1036.6,871.6,1040.5,871.6,1045z"/>
					<path class="st11" d="M904.6,1060.5v-9.3h9.3v9.3H904.6z"/>
					<path class="st11" d="M994.7,1053.2c-2.6,2.6-5.6,4.6-9,6.1s-7.1,2.2-11,2.2c-3.9,0-7.5-0.7-11-2.2s-6.4-3.5-9-6.1
						c-2.6-2.6-4.6-5.6-6.1-9c-1.5-3.4-2.2-7.1-2.2-11s0.7-7.5,2.2-11s3.5-6.4,6.1-9c2.6-2.6,5.6-4.6,9-6.1c3.4-1.5,7.1-2.2,11-2.2
						c3.9,0,7.6,0.7,11,2.2s6.4,3.5,9,6.1l-6.6,6.6c-1.8-1.8-3.8-3.2-6.1-4.2c-2.3-1-4.7-1.4-7.3-1.4c-2.5,0-4.9,0.5-7.2,1.4
						c-2.3,1-4.3,2.3-6.1,4.2c-1.8,1.8-3.2,3.8-4.2,6.1c-1,2.3-1.4,4.7-1.4,7.2c0,2.5,0.5,4.9,1.4,7.3c1,2.3,2.3,4.4,4.2,6.2
						c1.8,1.8,3.8,3.2,6.1,4.1c2.3,0.9,4.7,1.4,7.2,1.4c2.6,0,5-0.5,7.3-1.4c2.3-0.9,4.3-2.3,6.1-4.1L994.7,1053.2z"/>
					<path class="st11" d="M1048.4,1005.1c3.9,0,7.5,0.7,11,2.2s6.4,3.5,9,6.1c2.6,2.6,4.6,5.6,6.1,9c1.5,3.4,2.2,7.1,2.2,11
						s-0.7,7.5-2.2,11s-3.5,6.4-6.1,9c-2.6,2.6-5.6,4.6-9,6.1c-3.4,1.5-7.1,2.2-11,2.2s-7.5-0.7-11-2.2s-6.4-3.5-9-6.1
						c-2.6-2.6-4.6-5.6-6.1-9c-1.5-3.4-2.2-7.1-2.2-11s0.7-7.5,2.2-11s3.5-6.4,6.1-9c2.6-2.6,5.6-4.6,9-6.1
						C1040.9,1005.8,1044.5,1005.1,1048.4,1005.1z M1048.4,1014.4c-2.5,0-4.9,0.5-7.2,1.4c-2.3,1-4.3,2.3-6.1,4.2
						c-1.8,1.8-3.2,3.8-4.2,6.1c-1,2.3-1.4,4.7-1.4,7.2c0,2.5,0.5,4.9,1.4,7.3c1,2.3,2.3,4.4,4.2,6.2c1.8,1.8,3.8,3.2,6.1,4.1
						c2.3,0.9,4.7,1.4,7.2,1.4c2.5,0,4.9-0.5,7.3-1.4c2.3-0.9,4.3-2.3,6.2-4.1c1.8-1.8,3.2-3.9,4.1-6.2c0.9-2.3,1.4-4.7,1.4-7.3
						s-0.5-4.9-1.4-7.2s-2.3-4.3-4.1-6.1c-1.8-1.8-3.9-3.2-6.2-4.2C1053.4,1014.8,1051,1014.4,1048.4,1014.4z"/>
					<path class="st11" d="M1162,1006.1v54.3h-9.3v-38.5l-17.9,27.7l-17.8-27.7v38.5h-9.3v-54.3h10.2l17,26.4l17.1-26.4H1162z"/>
				</g>
			</g>
			<g>
				<g>
					<polygon class="st11" points="614.4,625.1 560,625.1 586.9,649.4 					"/>
				</g>
				<g>
					<g>
						<path class="st11" d="M658.8,612l-71.8-98l-61.2,84l15.9,13.3l45.4-62.3l56,76.2l-34.8,28.3l-21.2,17.3l-20.6-17.3
							L394.1,509.3v300.1l192.8,139.8l194.2-139.9V509.4L658.8,612z M414.8,553.8l88.6,74.9l-88.6,121.7 M760.4,553.7v196.8
							l-79.9-108.5l-15.9,13.3l102.1,138.8L586.9,923.9L408.4,794.2l110.8-152.1l48.4,39.6l-20.5,167.6l39.8,29.8l39.7-29.3
							l-19.3-168.8"/>
					</g>
				</g>
			</g>
		</g>
	</g>
</g>
<g class="st0">
	<rect x="-412.4" y="-694.6" class="st12" width="2000" height="2000"/>
	<rect x="-412.4" y="348.1" class="st9" width="2000" height="957.3"/>
	<g class="st3">
		<g>
			<path class="st10" d="M72.4,120.5H62.2l-4.2-9.3l-4.2-9.3l-11-24.3l-11,24.3h14.1l4.2,9.3H27.6l-4.2,9.3H13.2l24.5-54.3h10.2
				L72.4,120.5z"/>
			<path class="st10" d="M139.5,91.5c2.1,1.5,3.7,3.3,5,5.6c1.2,2.3,1.9,4.8,1.9,7.4v0.2c0,2.2-0.4,4.2-1.2,6.2
				c-0.8,1.9-2,3.6-3.4,5c-1.5,1.4-3.1,2.5-5,3.4c-1.9,0.8-4,1.2-6.1,1.2h-15.4l3.7-9.3h11.7c1.8,0,3.3-0.6,4.6-1.9
				c1.3-1.3,1.9-2.8,1.9-4.6v-0.2c0-1.8-0.6-3.3-1.9-4.6c-1.3-1.3-2.8-1.9-4.6-1.9h-3.8h-15.2v13.2v9.3h-9.3V98v-9.3V66.2h24.5
				c2.2,0,4.2,0.4,6.2,1.2s3.6,2,5,3.4c1.4,1.5,2.5,3.1,3.4,5c0.8,1.9,1.2,4,1.2,6.1v0.2c0,1.8-0.3,3.4-0.8,5
				C141.2,88.8,140.5,90.2,139.5,91.5z M133.2,82c0-1.8-0.6-3.3-1.9-4.6c-1.3-1.3-2.8-1.9-4.6-1.9h-15.2v13.2h15.2
				c1.8,0,3.3-0.6,4.6-1.9c1.3-1.3,1.9-2.8,1.9-4.6V82z"/>
			<path class="st10" d="M212.3,105c0,2.5-0.4,4.8-1.2,6.9s-2,3.8-3.5,5.2s-3.4,2.5-5.5,3.3c-2.2,0.8-4.6,1.2-7.3,1.2
				c-4.3,0-8.1-0.7-11.5-2.1c-3.4-1.4-6.1-2.9-8.3-4.7l6.4-6.4c1.7,1.5,3.6,2.7,5.7,3.6c1.3,0.5,2.5,0.8,3.6,1
				c1.1,0.2,2.1,0.2,2.8,0.2c1.3,0,2.6-0.2,3.7-0.5c1.1-0.3,2.1-0.8,2.9-1.4c1.8-1.3,2.6-3,2.6-5.1c0-1.3-0.5-2.5-1.4-3.5
				c-0.7-0.8-1.7-1.5-2.8-2c-0.9-0.5-1.9-0.9-3-1.2c-1-0.3-2-0.6-2.8-0.8c-0.3-0.1-0.5-0.2-0.7-0.2s-0.4-0.1-0.5-0.2
				c-0.1,0-0.3,0-0.5-0.2c-1.1-0.3-2.7-0.8-4.7-1.6c-2-0.8-4.1-1.8-6.1-3.2c-4.7-3.2-7.1-7-7.1-11.6c0-3,0.5-5.6,1.6-7.7
				s2.4-3.8,4.2-5.1s3.6-2.3,5.7-2.8s4.2-0.8,6.2-0.8c3.7,0,6.8,0.4,9.4,1.3s4.5,1.8,6,2.6c0.8,0.5,1.4,0.9,2,1.4
				c0.5,0.4,1,0.8,1.4,1.2l-6.6,6.7c-1.4-1.4-2.8-2.5-4.3-3.2c-2.2-1-4.5-1.5-6.8-1.5c-1,0-2.1,0.1-3.1,0.4c-1,0.3-1.9,0.6-2.7,1
				c-2.3,1.4-3.4,3.2-3.4,5.5c0,1.4,0.5,2.6,1.4,3.6c0.7,0.8,1.6,1.5,2.8,2.1c1,0.5,2,0.9,3.1,1.2c1.1,0.3,2.1,0.6,3,0.8l0.9,0.2
				c0.3,0.1,0.8,0.3,1.5,0.5c0.7,0.2,1.6,0.5,2.6,0.9s2,0.9,3.2,1.5c1.2,0.6,2.3,1.2,3.5,2C209.8,96.6,212.3,100.5,212.3,105z"/>
			<path class="st10" d="M270.8,65.1c3.9,0,7.5,0.7,11,2.2c3.4,1.5,6.4,3.5,9,6s4.6,5.6,6,9c1.5,3.4,2.2,7.1,2.2,11
				c0,3.9-0.7,7.5-2.2,11c-1.5,3.4-3.5,6.4-6,9s-5.6,4.6-9,6c-3.4,1.5-7.1,2.2-11,2.2s-7.5-0.7-11-2.2c-3.4-1.5-6.4-3.5-9-6
				c-2.6-2.6-4.6-5.5-6-9c-1.5-3.4-2.2-7.1-2.2-11c0-3.9,0.7-7.5,2.2-11c1.5-3.4,3.5-6.4,6-9s5.6-4.6,9-6
				C263.2,65.8,266.9,65.1,270.8,65.1z M270.8,74.4c-2.5,0-4.9,0.5-7.2,1.4c-2.3,1-4.3,2.3-6.1,4.2c-1.8,1.8-3.2,3.8-4.2,6.1
				c-1,2.3-1.4,4.7-1.4,7.2s0.5,5,1.4,7.3c1,2.3,2.3,4.4,4.2,6.2c1.8,1.8,3.8,3.2,6.1,4.1s4.7,1.4,7.2,1.4s5-0.5,7.3-1.4
				c2.3-0.9,4.3-2.3,6.2-4.1s3.2-3.9,4.1-6.2s1.4-4.7,1.4-7.3s-0.5-4.9-1.4-7.2c-0.9-2.3-2.3-4.3-4.1-6.1s-3.9-3.2-6.2-4.2
				C275.7,74.8,273.3,74.4,270.8,74.4z"/>
			<path class="st10" d="M360.6,111.2v9.3h-21.3H330v-9.3V66.3h9.3v44.9H360.6z"/>
			<path class="st10" d="M436.5,66.2v32.6c0,3.2-0.6,6.1-1.8,8.9c-1.2,2.8-2.8,5.2-4.9,7.3c-2.1,2.1-4.5,3.7-7.3,4.9
				c-2.8,1.2-5.7,1.8-8.9,1.8s-6.1-0.6-8.9-1.8c-2.8-1.2-5.2-2.8-7.3-4.9c-2.1-2.1-3.7-4.5-4.9-7.3c-1.2-2.8-1.8-5.7-1.8-8.9V66.2
				h9.3v32.6c0,1.8,0.3,3.5,1,5.2c0.7,1.6,1.7,3.1,3,4.4c1.3,1.3,2.8,2.3,4.4,3c1.6,0.7,3.3,1,5.2,1c3.7,0,6.9-1.3,9.5-4
				c1.3-1.3,2.3-2.8,3-4.4c0.7-1.6,1-3.3,1-5.2V66.2L436.5,66.2L436.5,66.2z"/>
			<path class="st10" d="M507.9,75.5H492v45h-9.3v-45h-16v-9.3h16h9.3h15.9L507.9,75.5L507.9,75.5z"/>
			<path class="st10" d="M547.8,75.5v13.2H568l2.3,9.3h-22.6v13.2H575v9.3h-36.5V66.2H575v9.3L547.8,75.5L547.8,75.5z"/>
			<path class="st10" d="M660.8,66.1v54.3h-9.3V81.9l-17.9,27.7l-17.8-27.7v38.5h-9.3V66.1h10.2l17,26.4l17.1-26.4H660.8z"/>
			<path class="st10" d="M701.9,75.5v13.2h20.2l2.3,9.3h-22.6v13.2h27.2v9.3h-36.5V66.2h36.5v9.3L701.9,75.5L701.9,75.5z"/>
			<path class="st10" d="M801.6,66.1v54.3h-10.1l-21.8-37.1v37.1h-9.3V66.1h10.1l21.8,37.1V66.1H801.6z"/>
			<path class="st10" d="M871.6,105c0,2.5-0.4,4.8-1.2,6.9s-2,3.8-3.5,5.2s-3.4,2.5-5.5,3.3c-2.2,0.8-4.6,1.2-7.3,1.2
				c-4.3,0-8.1-0.7-11.5-2.1c-3.4-1.4-6.1-2.9-8.3-4.7l6.4-6.4c1.7,1.5,3.6,2.7,5.7,3.6c1.3,0.5,2.5,0.8,3.6,1
				c1.1,0.2,2.1,0.2,2.8,0.2c1.3,0,2.6-0.2,3.7-0.5c1.1-0.3,2.1-0.8,2.9-1.4c1.8-1.3,2.6-3,2.6-5.1c0-1.3-0.5-2.5-1.4-3.5
				c-0.7-0.8-1.7-1.5-2.8-2c-0.9-0.5-1.9-0.9-2.9-1.2c-1-0.3-2-0.6-2.8-0.8c-0.3-0.1-0.5-0.2-0.7-0.2s-0.4-0.1-0.5-0.2
				c-0.1,0-0.3,0-0.5-0.2c-1.1-0.3-2.7-0.8-4.7-1.6c-2-0.8-4.1-1.8-6.1-3.2c-4.7-3.2-7.1-7-7.1-11.6c0-3,0.5-5.6,1.6-7.7
				c1.1-2.1,2.4-3.8,4.2-5.1c1.7-1.3,3.6-2.3,5.7-2.8s4.2-0.8,6.2-0.8c3.7,0,6.8,0.4,9.4,1.3s4.6,1.8,6.1,2.6c0.8,0.5,1.4,0.9,2,1.4
				c0.5,0.4,1,0.8,1.4,1.2l-6.6,6.7c-1.4-1.4-2.8-2.5-4.3-3.2c-2.2-1-4.4-1.5-6.8-1.5c-1,0-2.1,0.1-3.1,0.4s-1.9,0.6-2.7,1
				c-2.3,1.4-3.4,3.2-3.4,5.5c0,1.4,0.5,2.6,1.4,3.6c0.7,0.8,1.6,1.5,2.8,2.1c1,0.5,2,0.9,3.1,1.2c1.1,0.3,2.1,0.6,3,0.8l0.9,0.2
				c0.3,0.1,0.8,0.3,1.5,0.5c0.7,0.2,1.6,0.5,2.6,0.9c1,0.4,2.1,0.9,3.2,1.5c1.2,0.6,2.3,1.2,3.4,2
				C869.1,96.6,871.6,100.5,871.6,105z"/>
			<path class="st10" d="M904.6,120.5v-9.3h9.3v9.3H904.6z"/>
			<path class="st10" d="M994.7,113.2c-2.6,2.6-5.6,4.6-9,6.1c-3.4,1.5-7.1,2.2-11,2.2c-3.9,0-7.5-0.7-11-2.2c-3.4-1.5-6.4-3.5-9-6
				c-2.6-2.6-4.6-5.5-6.1-9c-1.5-3.4-2.2-7.1-2.2-11c0-3.9,0.7-7.5,2.2-11c1.5-3.4,3.5-6.4,6.1-9s5.6-4.6,9-6
				c3.4-1.5,7.1-2.2,11-2.2c3.9,0,7.6,0.7,11,2.2c3.4,1.5,6.4,3.5,9,6.1l-6.6,6.6c-1.8-1.8-3.8-3.2-6.1-4.2s-4.7-1.4-7.3-1.4
				c-2.5,0-4.9,0.5-7.2,1.4c-2.3,1-4.3,2.3-6.1,4.2c-1.8,1.8-3.2,3.8-4.2,6.1c-1,2.3-1.4,4.7-1.4,7.2s0.5,5,1.4,7.3
				c1,2.3,2.3,4.4,4.2,6.2c1.8,1.8,3.8,3.2,6.1,4.1s4.7,1.4,7.2,1.4c2.6,0,5-0.5,7.3-1.4c2.3-0.9,4.3-2.3,6.1-4.1L994.7,113.2z"/>
			<path class="st10" d="M1048.4,65.1c3.9,0,7.5,0.7,11,2.2c3.4,1.5,6.4,3.5,9,6c2.6,2.6,4.6,5.6,6.1,9c1.5,3.4,2.2,7.1,2.2,11
				c0,3.9-0.7,7.5-2.2,11c-1.5,3.4-3.5,6.4-6.1,9s-5.6,4.6-9,6c-3.4,1.5-7.1,2.2-11,2.2s-7.5-0.7-11-2.2c-3.4-1.5-6.4-3.5-9-6
				c-2.6-2.6-4.6-5.5-6.1-9c-1.5-3.4-2.2-7.1-2.2-11c0-3.9,0.7-7.5,2.2-11c1.5-3.4,3.5-6.4,6.1-9s5.6-4.6,9-6
				C1040.9,65.8,1044.5,65.1,1048.4,65.1z M1048.4,74.4c-2.5,0-4.9,0.5-7.2,1.4c-2.3,1-4.3,2.3-6.1,4.2c-1.8,1.8-3.2,3.8-4.2,6.1
				c-1,2.3-1.4,4.7-1.4,7.2s0.5,5,1.4,7.3c1,2.3,2.3,4.4,4.2,6.2c1.8,1.8,3.8,3.2,6.1,4.1s4.7,1.4,7.2,1.4c2.5,0,4.9-0.5,7.3-1.4
				c2.3-0.9,4.3-2.3,6.2-4.1s3.2-3.9,4.1-6.2c0.9-2.3,1.4-4.7,1.4-7.3s-0.5-4.9-1.4-7.2s-2.3-4.3-4.1-6.1c-1.8-1.8-3.9-3.2-6.2-4.2
				C1053.4,74.8,1051,74.4,1048.4,74.4z"/>
			<path class="st10" d="M1162,66.1v54.3h-9.3V81.9l-17.9,27.7L1117,81.9v38.5h-9.3V66.1h10.2l17,26.4l17.1-26.4H1162z"/>
		</g>
		<g>
			<polygon class="st10" points="614.4,-314.9 560,-314.9 586.9,-290.6 			"/>
			<path class="st10" d="M658.8-328l-71.8-98l-61.2,84l15.9,13.3l45.4-62.3l56,76.2l-34.8,28.3l-21.2,17.3l-20.6-17.3L394.1-430.7
				v300.1L586.9,9.2l194.1-139.9v-299.9L658.8-328z M414.8-386.2l88.6,74.9l-88.6,121.7V-386.2z M760.4-386.3v196.8l-79.9-108.5
				l-15.9,13.3l102.1,138.8L586.9-16.1L408.4-145.8l110.8-152.1l48.4,39.6L547.1-90.7l39.8,29.8l39.7-29.3l-19.3-168.8"/>
		</g>
	</g>
	<g class="st3">
		<g>
			<g>
				<g>
					<path class="st13" d="M72.4,1060.5H62.2l-4.2-9.3l-4.2-9.3l-11-24.3l-11,24.3h14.1l4.2,9.3H27.6l-4.2,9.3H13.2l24.5-54.3h10.2
						L72.4,1060.5z"/>
					<path class="st13" d="M139.5,1031.5c2.1,1.4,3.7,3.3,5,5.6c1.2,2.3,1.9,4.8,1.9,7.4v0.2c0,2.2-0.4,4.2-1.2,6.2
						c-0.8,1.9-2,3.6-3.4,5c-1.5,1.4-3.1,2.6-5,3.4c-1.9,0.8-4,1.2-6.1,1.2h-15.4l3.7-9.3h11.7c1.8,0,3.3-0.6,4.6-1.9
						c1.3-1.3,1.9-2.8,1.9-4.6v-0.2c0-1.8-0.6-3.3-1.9-4.6c-1.3-1.3-2.8-1.9-4.6-1.9h-3.8h-15.2v13.2v9.3h-9.3V1038v-9.3v-22.5h24.5
						c2.2,0,4.2,0.4,6.2,1.2s3.6,2,5,3.4c1.4,1.4,2.5,3.1,3.4,5c0.8,1.9,1.2,3.9,1.2,6.1v0.2c0,1.8-0.3,3.4-0.8,5
						S140.5,1030.2,139.5,1031.5z M133.2,1022c0-1.8-0.6-3.3-1.9-4.6c-1.3-1.3-2.8-1.9-4.6-1.9h-15.2v13.2h15.2
						c1.8,0,3.3-0.6,4.6-1.9c1.3-1.3,1.9-2.8,1.9-4.6V1022z"/>
					<path class="st13" d="M212.3,1045c0,2.5-0.4,4.8-1.2,6.9s-2,3.8-3.5,5.2c-1.5,1.4-3.4,2.5-5.5,3.3c-2.2,0.8-4.6,1.2-7.3,1.2
						c-4.3,0-8.1-0.7-11.5-2.1c-3.4-1.4-6.1-2.9-8.3-4.7l6.4-6.4c1.7,1.6,3.6,2.7,5.7,3.6c1.3,0.5,2.5,0.8,3.6,1
						c1.1,0.2,2.1,0.2,2.8,0.2c1.3,0,2.6-0.2,3.7-0.5c1.1-0.3,2.1-0.8,2.9-1.4c1.8-1.3,2.6-3,2.6-5.1c0-1.3-0.5-2.4-1.4-3.5
						c-0.7-0.8-1.7-1.5-2.8-2c-0.9-0.5-1.9-0.9-3-1.2c-1-0.3-2-0.6-2.8-0.8c-0.3-0.1-0.5-0.2-0.7-0.2c-0.2,0-0.4-0.1-0.5-0.2
						c-0.1,0-0.3-0.1-0.5-0.2c-1.1-0.3-2.7-0.8-4.7-1.6c-2-0.8-4.1-1.8-6.1-3.2c-4.7-3.2-7.1-7-7.1-11.6c0-3.1,0.5-5.6,1.6-7.7
						s2.4-3.8,4.2-5.1s3.6-2.3,5.7-2.8s4.2-0.8,6.2-0.8c3.7,0,6.8,0.4,9.4,1.3s4.5,1.8,6,2.6c0.8,0.5,1.4,0.9,2,1.4
						c0.5,0.4,1,0.8,1.4,1.2l-6.6,6.7c-1.4-1.4-2.8-2.4-4.3-3.2c-2.2-1-4.5-1.6-6.8-1.6c-1,0-2.1,0.1-3.1,0.4c-1,0.3-1.9,0.6-2.7,1
						c-2.3,1.4-3.4,3.2-3.4,5.5c0,1.4,0.5,2.6,1.4,3.6c0.7,0.8,1.6,1.5,2.8,2.1c1,0.5,2,0.9,3.1,1.2c1.1,0.3,2.1,0.6,3,0.8l0.9,0.2
						c0.3,0.1,0.8,0.3,1.5,0.5c0.7,0.2,1.6,0.5,2.6,0.9s2,0.9,3.2,1.5c1.2,0.6,2.3,1.2,3.5,2C209.8,1036.6,212.3,1040.5,212.3,1045z
						"/>
					<path class="st13" d="M270.8,1005.1c3.9,0,7.5,0.7,11,2.2c3.4,1.5,6.4,3.5,9,6.1c2.6,2.6,4.6,5.6,6,9c1.5,3.4,2.2,7.1,2.2,11
						s-0.7,7.5-2.2,11c-1.5,3.4-3.5,6.4-6,9s-5.6,4.6-9,6.1c-3.4,1.5-7.1,2.2-11,2.2s-7.5-0.7-11-2.2c-3.4-1.5-6.4-3.5-9-6.1
						c-2.6-2.6-4.6-5.6-6-9c-1.5-3.4-2.2-7.1-2.2-11s0.7-7.5,2.2-11c1.5-3.4,3.5-6.4,6-9c2.6-2.6,5.6-4.6,9-6.1
						C263.2,1005.8,266.9,1005.1,270.8,1005.1z M270.8,1014.4c-2.5,0-4.9,0.5-7.2,1.4c-2.3,1-4.3,2.3-6.1,4.2
						c-1.8,1.8-3.2,3.8-4.2,6.1c-1,2.3-1.4,4.7-1.4,7.2c0,2.5,0.5,4.9,1.4,7.3c1,2.3,2.3,4.4,4.2,6.2c1.8,1.8,3.8,3.2,6.1,4.1
						c2.3,0.9,4.7,1.4,7.2,1.4s5-0.5,7.3-1.4c2.3-0.9,4.3-2.3,6.2-4.1c1.8-1.8,3.2-3.9,4.1-6.2s1.4-4.7,1.4-7.3s-0.5-4.9-1.4-7.2
						c-0.9-2.3-2.3-4.3-4.1-6.1c-1.8-1.8-3.9-3.2-6.2-4.2C275.7,1014.8,273.3,1014.4,270.8,1014.4z"/>
					<path class="st13" d="M360.6,1051.2v9.3h-21.3H330v-9.3v-44.9h9.3v44.9H360.6z"/>
					<path class="st13" d="M436.5,1006.2v32.6c0,3.2-0.6,6.1-1.8,8.9c-1.2,2.8-2.8,5.2-4.9,7.3c-2.1,2.1-4.5,3.7-7.3,4.9
						c-2.8,1.2-5.7,1.8-8.9,1.8s-6.1-0.6-8.9-1.8c-2.8-1.2-5.2-2.8-7.3-4.9c-2.1-2.1-3.7-4.5-4.9-7.3c-1.2-2.8-1.8-5.7-1.8-8.9
						v-32.6h9.3v32.6c0,1.8,0.3,3.5,1,5.2s1.7,3.1,3,4.4c1.3,1.3,2.8,2.3,4.4,2.9c1.6,0.7,3.3,1,5.2,1c3.7,0,6.9-1.3,9.5-3.9
						c1.3-1.3,2.3-2.8,3-4.4c0.7-1.6,1-3.3,1-5.2v-32.6L436.5,1006.2L436.5,1006.2z"/>
					<path class="st13" d="M507.9,1015.5H492v45h-9.3v-45h-16v-9.3h16h9.3h15.9L507.9,1015.5L507.9,1015.5z"/>
					<path class="st13" d="M547.8,1015.5v13.2H568l2.3,9.3h-22.6v13.2H575v9.3h-36.5v-54.3H575v9.3L547.8,1015.5L547.8,1015.5z"/>
					<path class="st13" d="M660.8,1006.1v54.3h-9.3v-38.5l-17.9,27.7l-17.8-27.7v38.5h-9.3v-54.3h10.2l17,26.4l17.1-26.4H660.8z"/>
					<path class="st13" d="M701.9,1015.5v13.2h20.2l2.3,9.3h-22.6v13.2h27.2v9.3h-36.5v-54.3h36.5v9.3L701.9,1015.5L701.9,1015.5z"
						/>
					<path class="st13" d="M801.6,1006.1v54.3h-10.1l-21.8-37.1v37.1h-9.3v-54.3h10.1l21.8,37.1v-37.1H801.6z"/>
					<path class="st13" d="M871.6,1045c0,2.5-0.4,4.8-1.2,6.9s-2,3.8-3.5,5.2c-1.5,1.4-3.4,2.5-5.5,3.3c-2.2,0.8-4.6,1.2-7.3,1.2
						c-4.3,0-8.1-0.7-11.5-2.1c-3.4-1.4-6.1-2.9-8.3-4.7l6.4-6.4c1.7,1.6,3.6,2.7,5.7,3.6c1.3,0.5,2.5,0.8,3.6,1
						c1.1,0.2,2.1,0.2,2.8,0.2c1.3,0,2.6-0.2,3.7-0.5c1.1-0.3,2.1-0.8,2.9-1.4c1.8-1.3,2.6-3,2.6-5.1c0-1.3-0.5-2.4-1.4-3.5
						c-0.7-0.8-1.7-1.5-2.8-2c-0.9-0.5-1.9-0.9-2.9-1.2c-1-0.3-2-0.6-2.8-0.8c-0.3-0.1-0.5-0.2-0.7-0.2c-0.2,0-0.4-0.1-0.5-0.2
						c-0.1,0-0.3-0.1-0.5-0.2c-1.1-0.3-2.7-0.8-4.7-1.6c-2-0.8-4.1-1.8-6.1-3.2c-4.7-3.2-7.1-7-7.1-11.6c0-3.1,0.5-5.6,1.6-7.7
						c1.1-2.1,2.4-3.8,4.2-5.1c1.7-1.3,3.6-2.3,5.7-2.8s4.2-0.8,6.2-0.8c3.7,0,6.8,0.4,9.4,1.3s4.6,1.8,6.1,2.6
						c0.8,0.5,1.4,0.9,2,1.4c0.5,0.4,1,0.8,1.4,1.2l-6.6,6.7c-1.4-1.4-2.8-2.4-4.3-3.2c-2.2-1-4.4-1.6-6.8-1.6c-1,0-2.1,0.1-3.1,0.4
						s-1.9,0.6-2.7,1c-2.3,1.4-3.4,3.2-3.4,5.5c0,1.4,0.5,2.6,1.4,3.6c0.7,0.8,1.6,1.5,2.8,2.1c1,0.5,2,0.9,3.1,1.2
						c1.1,0.3,2.1,0.6,3,0.8l0.9,0.2c0.3,0.1,0.8,0.3,1.5,0.5c0.7,0.2,1.6,0.5,2.6,0.9c1,0.4,2.1,0.9,3.2,1.5c1.2,0.6,2.3,1.2,3.4,2
						C869.1,1036.6,871.6,1040.5,871.6,1045z"/>
					<path class="st13" d="M904.6,1060.5v-9.3h9.3v9.3H904.6z"/>
					<path class="st13" d="M994.7,1053.2c-2.6,2.6-5.6,4.6-9,6.1s-7.1,2.2-11,2.2c-3.9,0-7.5-0.7-11-2.2s-6.4-3.5-9-6.1
						c-2.6-2.6-4.6-5.6-6.1-9c-1.5-3.4-2.2-7.1-2.2-11s0.7-7.5,2.2-11s3.5-6.4,6.1-9c2.6-2.6,5.6-4.6,9-6.1c3.4-1.5,7.1-2.2,11-2.2
						c3.9,0,7.6,0.7,11,2.2s6.4,3.5,9,6.1l-6.6,6.6c-1.8-1.8-3.8-3.2-6.1-4.2c-2.3-1-4.7-1.4-7.3-1.4c-2.5,0-4.9,0.5-7.2,1.4
						c-2.3,1-4.3,2.3-6.1,4.2c-1.8,1.8-3.2,3.8-4.2,6.1c-1,2.3-1.4,4.7-1.4,7.2c0,2.5,0.5,4.9,1.4,7.3c1,2.3,2.3,4.4,4.2,6.2
						c1.8,1.8,3.8,3.2,6.1,4.1c2.3,0.9,4.7,1.4,7.2,1.4c2.6,0,5-0.5,7.3-1.4c2.3-0.9,4.3-2.3,6.1-4.1L994.7,1053.2z"/>
					<path class="st13" d="M1048.4,1005.1c3.9,0,7.5,0.7,11,2.2s6.4,3.5,9,6.1c2.6,2.6,4.6,5.6,6.1,9c1.5,3.4,2.2,7.1,2.2,11
						s-0.7,7.5-2.2,11s-3.5,6.4-6.1,9c-2.6,2.6-5.6,4.6-9,6.1c-3.4,1.5-7.1,2.2-11,2.2s-7.5-0.7-11-2.2s-6.4-3.5-9-6.1
						c-2.6-2.6-4.6-5.6-6.1-9c-1.5-3.4-2.2-7.1-2.2-11s0.7-7.5,2.2-11s3.5-6.4,6.1-9c2.6-2.6,5.6-4.6,9-6.1
						C1040.9,1005.8,1044.5,1005.1,1048.4,1005.1z M1048.4,1014.4c-2.5,0-4.9,0.5-7.2,1.4c-2.3,1-4.3,2.3-6.1,4.2
						c-1.8,1.8-3.2,3.8-4.2,6.1c-1,2.3-1.4,4.7-1.4,7.2c0,2.5,0.5,4.9,1.4,7.3c1,2.3,2.3,4.4,4.2,6.2c1.8,1.8,3.8,3.2,6.1,4.1
						c2.3,0.9,4.7,1.4,7.2,1.4c2.5,0,4.9-0.5,7.3-1.4c2.3-0.9,4.3-2.3,6.2-4.1c1.8-1.8,3.2-3.9,4.1-6.2c0.9-2.3,1.4-4.7,1.4-7.3
						s-0.5-4.9-1.4-7.2s-2.3-4.3-4.1-6.1c-1.8-1.8-3.9-3.2-6.2-4.2C1053.4,1014.8,1051,1014.4,1048.4,1014.4z"/>
					<path class="st13" d="M1162,1006.1v54.3h-9.3v-38.5l-17.9,27.7l-17.8-27.7v38.5h-9.3v-54.3h10.2l17,26.4l17.1-26.4H1162z"/>
				</g>
			</g>
			<g>
				<g>
					<polygon class="st13" points="614.4,625.1 560,625.1 586.9,649.4 					"/>
				</g>
				<g>
					<g>
						<path class="st13" d="M658.8,612l-71.8-98l-61.2,84l15.9,13.3l45.4-62.3l56,76.2l-34.8,28.3l-21.2,17.3l-20.6-17.3
							L394.1,509.3v300.1l192.8,139.8l194.2-139.9V509.4L658.8,612z M414.8,553.8l88.6,74.9l-88.6,121.7 M760.4,553.7v196.8
							l-79.9-108.5l-15.9,13.3l102.1,138.8L586.9,923.9L408.4,794.2l110.8-152.1l48.4,39.6l-20.5,167.6l39.8,29.8l39.7-29.3
							l-19.3-168.8"/>
					</g>
				</g>
			</g>
		</g>
	</g>
</g>
<rect x="-412.4" y="-694.6" class="st14" width="2000" height="2000"/>
<g class="st0">
	<g class="st3">
		<g>
			<g>
				<path class="st15" d="M72.4,580.5H62.2l-4.2-9.3l-4.2-9.3l-11-24.3l-11,24.3h14.1l4.2,9.3H27.6l-4.2,9.3H13.2l24.5-54.3h10.2
					L72.4,580.5z"/>
				<path class="st15" d="M139.5,551.5c2.1,1.4,3.7,3.3,5,5.6c1.2,2.3,1.9,4.8,1.9,7.4v0.2c0,2.2-0.4,4.2-1.2,6.2
					c-0.8,1.9-2,3.6-3.4,5c-1.5,1.4-3.1,2.6-5,3.4c-1.9,0.8-4,1.2-6.1,1.2h-15.4l3.7-9.3h11.7c1.8,0,3.3-0.6,4.6-1.9
					c1.3-1.3,1.9-2.8,1.9-4.6v-0.2c0-1.8-0.6-3.3-1.9-4.6c-1.3-1.3-2.8-1.9-4.6-1.9h-3.8h-15.2v13.2v9.3h-9.3V558v-9.3v-22.5h24.5
					c2.2,0,4.2,0.4,6.2,1.2s3.6,2,5,3.4c1.4,1.4,2.5,3.1,3.4,5c0.8,1.9,1.2,3.9,1.2,6.1v0.2c0,1.8-0.3,3.4-0.8,5
					S140.5,550.2,139.5,551.5z M133.2,542c0-1.8-0.6-3.3-1.9-4.6c-1.3-1.3-2.8-1.9-4.6-1.9h-15.2v13.2h15.2c1.8,0,3.3-0.6,4.6-1.9
					c1.3-1.3,1.9-2.8,1.9-4.6V542z"/>
				<path class="st15" d="M212.3,565c0,2.5-0.4,4.8-1.2,6.9s-2,3.8-3.5,5.2c-1.5,1.4-3.4,2.5-5.5,3.3c-2.2,0.8-4.6,1.2-7.3,1.2
					c-4.3,0-8.1-0.7-11.5-2.1c-3.4-1.4-6.1-2.9-8.3-4.7l6.4-6.4c1.7,1.6,3.6,2.7,5.7,3.6c1.3,0.5,2.5,0.8,3.6,1
					c1.1,0.2,2.1,0.2,2.8,0.2c1.3,0,2.6-0.2,3.7-0.5c1.1-0.3,2.1-0.8,2.9-1.4c1.8-1.3,2.6-3,2.6-5.1c0-1.3-0.5-2.4-1.4-3.5
					c-0.7-0.8-1.7-1.5-2.8-2c-0.9-0.5-1.9-0.9-3-1.2c-1-0.3-2-0.6-2.8-0.8c-0.3-0.1-0.5-0.2-0.7-0.2c-0.2,0-0.4-0.1-0.5-0.2
					c-0.1,0-0.3-0.1-0.5-0.2c-1.1-0.3-2.7-0.8-4.7-1.6c-2-0.8-4.1-1.8-6.1-3.2c-4.7-3.2-7.1-7-7.1-11.6c0-3.1,0.5-5.6,1.6-7.7
					s2.4-3.8,4.2-5.1s3.6-2.3,5.7-2.8s4.2-0.8,6.2-0.8c3.7,0,6.8,0.4,9.4,1.3s4.5,1.8,6,2.6c0.8,0.5,1.4,0.9,2,1.4
					c0.5,0.4,1,0.8,1.4,1.2l-6.6,6.7c-1.4-1.4-2.8-2.4-4.3-3.2c-2.2-1-4.5-1.6-6.8-1.6c-1,0-2.1,0.1-3.1,0.4c-1,0.3-1.9,0.6-2.7,1
					c-2.3,1.4-3.4,3.2-3.4,5.5c0,1.4,0.5,2.6,1.4,3.6c0.7,0.8,1.6,1.5,2.8,2.1c1,0.5,2,0.9,3.1,1.2c1.1,0.3,2.1,0.6,3,0.8l0.9,0.2
					c0.3,0.1,0.8,0.3,1.5,0.5c0.7,0.2,1.6,0.5,2.6,0.9s2,0.9,3.2,1.5c1.2,0.6,2.3,1.2,3.5,2C209.8,556.6,212.3,560.5,212.3,565z"/>
				<path class="st15" d="M270.8,525.1c3.9,0,7.5,0.7,11,2.2c3.4,1.5,6.4,3.5,9,6.1c2.6,2.6,4.6,5.6,6,9c1.5,3.4,2.2,7.1,2.2,11
					s-0.7,7.5-2.2,11c-1.5,3.4-3.5,6.4-6,9s-5.6,4.6-9,6.1c-3.4,1.5-7.1,2.2-11,2.2s-7.5-0.7-11-2.2c-3.4-1.5-6.4-3.5-9-6.1
					c-2.6-2.6-4.6-5.6-6-9c-1.5-3.4-2.2-7.1-2.2-11s0.7-7.5,2.2-11c1.5-3.4,3.5-6.4,6-9c2.6-2.6,5.6-4.6,9-6.1
					C263.2,525.8,266.9,525.1,270.8,525.1z M270.8,534.4c-2.5,0-4.9,0.5-7.2,1.4c-2.3,1-4.3,2.3-6.1,4.2c-1.8,1.8-3.2,3.8-4.2,6.1
					c-1,2.3-1.4,4.7-1.4,7.2c0,2.5,0.5,4.9,1.4,7.3c1,2.3,2.3,4.4,4.2,6.2c1.8,1.8,3.8,3.2,6.1,4.1c2.3,0.9,4.7,1.4,7.2,1.4
					s5-0.5,7.3-1.4c2.3-0.9,4.3-2.3,6.2-4.1c1.8-1.8,3.2-3.9,4.1-6.2s1.4-4.7,1.4-7.3s-0.5-4.9-1.4-7.2c-0.9-2.3-2.3-4.3-4.1-6.1
					c-1.8-1.8-3.9-3.2-6.2-4.2C275.7,534.8,273.3,534.4,270.8,534.4z"/>
				<path class="st15" d="M360.6,571.2v9.3h-21.3H330v-9.3v-44.9h9.3v44.9H360.6z"/>
				<path class="st15" d="M436.5,526.2v32.6c0,3.2-0.6,6.1-1.8,8.9c-1.2,2.8-2.8,5.2-4.9,7.3c-2.1,2.1-4.5,3.7-7.3,4.9
					c-2.8,1.2-5.7,1.8-8.9,1.8s-6.1-0.6-8.9-1.8c-2.8-1.2-5.2-2.8-7.3-4.9c-2.1-2.1-3.7-4.5-4.9-7.3c-1.2-2.8-1.8-5.7-1.8-8.9v-32.6
					h9.3v32.6c0,1.8,0.3,3.5,1,5.2s1.7,3.1,3,4.4c1.3,1.3,2.8,2.3,4.4,2.9c1.6,0.7,3.3,1,5.2,1c3.7,0,6.9-1.3,9.5-3.9
					c1.3-1.3,2.3-2.8,3-4.4c0.7-1.6,1-3.3,1-5.2v-32.6L436.5,526.2L436.5,526.2z"/>
				<path class="st15" d="M507.9,535.5H492v45h-9.3v-45h-16v-9.3h16h9.3h15.9L507.9,535.5L507.9,535.5z"/>
				<path class="st15" d="M547.8,535.5v13.2H568l2.3,9.3h-22.6v13.2H575v9.3h-36.5v-54.3H575v9.3L547.8,535.5L547.8,535.5z"/>
				<path class="st15" d="M660.8,526.1v54.3h-9.3v-38.5l-17.9,27.7l-17.8-27.7v38.5h-9.3v-54.3h10.2l17,26.4l17.1-26.4H660.8z"/>
				<path class="st15" d="M701.9,535.5v13.2h20.2l2.3,9.3h-22.6v13.2h27.2v9.3h-36.5v-54.3h36.5v9.3L701.9,535.5L701.9,535.5z"/>
				<path class="st15" d="M801.6,526.1v54.3h-10.1l-21.8-37.1v37.1h-9.3v-54.3h10.1l21.8,37.1v-37.1H801.6z"/>
				<path class="st15" d="M871.6,565c0,2.5-0.4,4.8-1.2,6.9s-2,3.8-3.5,5.2c-1.5,1.4-3.4,2.5-5.5,3.3c-2.2,0.8-4.6,1.2-7.3,1.2
					c-4.3,0-8.1-0.7-11.5-2.1c-3.4-1.4-6.1-2.9-8.3-4.7l6.4-6.4c1.7,1.6,3.6,2.7,5.7,3.6c1.3,0.5,2.5,0.8,3.6,1
					c1.1,0.2,2.1,0.2,2.8,0.2c1.3,0,2.6-0.2,3.7-0.5c1.1-0.3,2.1-0.8,2.9-1.4c1.8-1.3,2.6-3,2.6-5.1c0-1.3-0.5-2.4-1.4-3.5
					c-0.7-0.8-1.7-1.5-2.8-2c-0.9-0.5-1.9-0.9-2.9-1.2c-1-0.3-2-0.6-2.8-0.8c-0.3-0.1-0.5-0.2-0.7-0.2c-0.2,0-0.4-0.1-0.5-0.2
					c-0.1,0-0.3-0.1-0.5-0.2c-1.1-0.3-2.7-0.8-4.7-1.6c-2-0.8-4.1-1.8-6.1-3.2c-4.7-3.2-7.1-7-7.1-11.6c0-3.1,0.5-5.6,1.6-7.7
					c1.1-2.1,2.4-3.8,4.2-5.1c1.7-1.3,3.6-2.3,5.7-2.8s4.2-0.8,6.2-0.8c3.7,0,6.8,0.4,9.4,1.3s4.6,1.8,6.1,2.6
					c0.8,0.5,1.4,0.9,2,1.4c0.5,0.4,1,0.8,1.4,1.2l-6.6,6.7c-1.4-1.4-2.8-2.4-4.3-3.2c-2.2-1-4.4-1.6-6.8-1.6c-1,0-2.1,0.1-3.1,0.4
					s-1.9,0.6-2.7,1c-2.3,1.4-3.4,3.2-3.4,5.5c0,1.4,0.5,2.6,1.4,3.6c0.7,0.8,1.6,1.5,2.8,2.1c1,0.5,2,0.9,3.1,1.2
					c1.1,0.3,2.1,0.6,3,0.8l0.9,0.2c0.3,0.1,0.8,0.3,1.5,0.5c0.7,0.2,1.6,0.5,2.6,0.9c1,0.4,2.1,0.9,3.2,1.5c1.2,0.6,2.3,1.2,3.4,2
					C869.1,556.6,871.6,560.5,871.6,565z"/>
				<path class="st15" d="M904.6,580.5v-9.3h9.3v9.3H904.6z"/>
				<path class="st15" d="M994.7,573.2c-2.6,2.6-5.6,4.6-9,6.1s-7.1,2.2-11,2.2c-3.9,0-7.5-0.7-11-2.2s-6.4-3.5-9-6.1
					c-2.6-2.6-4.6-5.6-6.1-9c-1.5-3.4-2.2-7.1-2.2-11s0.7-7.5,2.2-11s3.5-6.4,6.1-9c2.6-2.6,5.6-4.6,9-6.1c3.4-1.5,7.1-2.2,11-2.2
					c3.9,0,7.6,0.7,11,2.2s6.4,3.5,9,6.1l-6.6,6.6c-1.8-1.8-3.8-3.2-6.1-4.2c-2.3-1-4.7-1.4-7.3-1.4c-2.5,0-4.9,0.5-7.2,1.4
					c-2.3,1-4.3,2.3-6.1,4.2c-1.8,1.8-3.2,3.8-4.2,6.1c-1,2.3-1.4,4.7-1.4,7.2c0,2.5,0.5,4.9,1.4,7.3c1,2.3,2.3,4.4,4.2,6.2
					c1.8,1.8,3.8,3.2,6.1,4.1c2.3,0.9,4.7,1.4,7.2,1.4c2.6,0,5-0.5,7.3-1.4c2.3-0.9,4.3-2.3,6.1-4.1L994.7,573.2z"/>
				<path class="st15" d="M1048.4,525.1c3.9,0,7.5,0.7,11,2.2s6.4,3.5,9,6.1c2.6,2.6,4.6,5.6,6.1,9c1.5,3.4,2.2,7.1,2.2,11
					s-0.7,7.5-2.2,11s-3.5,6.4-6.1,9c-2.6,2.6-5.6,4.6-9,6.1c-3.4,1.5-7.1,2.2-11,2.2s-7.5-0.7-11-2.2s-6.4-3.5-9-6.1
					c-2.6-2.6-4.6-5.6-6.1-9c-1.5-3.4-2.2-7.1-2.2-11s0.7-7.5,2.2-11s3.5-6.4,6.1-9c2.6-2.6,5.6-4.6,9-6.1
					C1040.9,525.8,1044.5,525.1,1048.4,525.1z M1048.4,534.4c-2.5,0-4.9,0.5-7.2,1.4c-2.3,1-4.3,2.3-6.1,4.2
					c-1.8,1.8-3.2,3.8-4.2,6.1c-1,2.3-1.4,4.7-1.4,7.2c0,2.5,0.5,4.9,1.4,7.3c1,2.3,2.3,4.4,4.2,6.2c1.8,1.8,3.8,3.2,6.1,4.1
					c2.3,0.9,4.7,1.4,7.2,1.4c2.5,0,4.9-0.5,7.3-1.4c2.3-0.9,4.3-2.3,6.2-4.1c1.8-1.8,3.2-3.9,4.1-6.2c0.9-2.3,1.4-4.7,1.4-7.3
					s-0.5-4.9-1.4-7.2s-2.3-4.3-4.1-6.1c-1.8-1.8-3.9-3.2-6.2-4.2C1053.4,534.8,1051,534.4,1048.4,534.4z"/>
				<path class="st15" d="M1162,526.1v54.3h-9.3v-38.5l-17.9,27.7l-17.8-27.7v38.5h-9.3v-54.3h10.2l17,26.4l17.1-26.4H1162z"/>
			</g>
		</g>
		<g>
			<polygon class="st15" points="614.4,145.1 560,145.1 586.9,169.4 			"/>
			<path class="st15" d="M658.8,132l-71.8-98l-61.2,84l15.9,13.3l45.4-62.3l56,76.2l-34.8,28.3l-21.2,17.3l-20.6-17.3L394.1,29.3
				v300.1l192.8,139.8l194.1-139.9V29.4L658.8,132z M414.8,73.8l88.6,74.9l-88.6,121.7V73.8z M760.4,73.7v196.8l-79.9-108.5
				l-15.9,13.3l102.1,138.8L586.9,443.9L408.4,314.2l110.8-152.1l48.4,39.6l-20.5,167.6l39.8,29.8l39.7-29.3l-19.3-168.8"/>
		</g>
	</g>
</g>
<g>
	<g>
		<g>
			<g>
				<path class="st16" d="M72.4,580.5H62.2l-4.2-9.3l-4.2-9.3l-11-24.3l-11,24.3h14.1l4.2,9.3H27.6l-4.2,9.3H13.2l24.5-54.3h10.2
					L72.4,580.5z"/>
				<path class="st16" d="M139.5,551.5c2.1,1.4,3.7,3.3,5,5.6c1.2,2.3,1.9,4.8,1.9,7.4v0.2c0,2.2-0.4,4.2-1.2,6.2
					c-0.8,1.9-2,3.6-3.4,5c-1.5,1.4-3.1,2.6-5,3.4c-1.9,0.8-4,1.2-6.1,1.2h-15.4l3.7-9.3h11.7c1.8,0,3.3-0.6,4.6-1.9
					c1.3-1.3,1.9-2.8,1.9-4.6v-0.2c0-1.8-0.6-3.3-1.9-4.6c-1.3-1.3-2.8-1.9-4.6-1.9h-3.8h-15.2v13.2v9.3h-9.3V558v-9.3v-22.5h24.5
					c2.2,0,4.2,0.4,6.2,1.2s3.6,2,5,3.4c1.4,1.4,2.5,3.1,3.4,5c0.8,1.9,1.2,3.9,1.2,6.1v0.2c0,1.8-0.3,3.4-0.8,5
					S140.5,550.2,139.5,551.5z M133.2,542c0-1.8-0.6-3.3-1.9-4.6c-1.3-1.3-2.8-1.9-4.6-1.9h-15.2v13.2h15.2c1.8,0,3.3-0.6,4.6-1.9
					c1.3-1.3,1.9-2.8,1.9-4.6V542z"/>
				<path class="st16" d="M212.3,565c0,2.5-0.4,4.8-1.2,6.9s-2,3.8-3.5,5.2c-1.5,1.4-3.4,2.5-5.5,3.3c-2.2,0.8-4.6,1.2-7.3,1.2
					c-4.3,0-8.1-0.7-11.5-2.1c-3.4-1.4-6.1-2.9-8.3-4.7l6.4-6.4c1.7,1.6,3.6,2.7,5.7,3.6c1.3,0.5,2.5,0.8,3.6,1
					c1.1,0.2,2.1,0.2,2.8,0.2c1.3,0,2.6-0.2,3.7-0.5c1.1-0.3,2.1-0.8,2.9-1.4c1.8-1.3,2.6-3,2.6-5.1c0-1.3-0.5-2.4-1.4-3.5
					c-0.7-0.8-1.7-1.5-2.8-2c-0.9-0.5-1.9-0.9-3-1.2c-1-0.3-2-0.6-2.8-0.8c-0.3-0.1-0.5-0.2-0.7-0.2c-0.2,0-0.4-0.1-0.5-0.2
					c-0.1,0-0.3-0.1-0.5-0.2c-1.1-0.3-2.7-0.8-4.7-1.6c-2-0.8-4.1-1.8-6.1-3.2c-4.7-3.2-7.1-7-7.1-11.6c0-3.1,0.5-5.6,1.6-7.7
					s2.4-3.8,4.2-5.1s3.6-2.3,5.7-2.8s4.2-0.8,6.2-0.8c3.7,0,6.8,0.4,9.4,1.3s4.5,1.8,6,2.6c0.8,0.5,1.4,0.9,2,1.4
					c0.5,0.4,1,0.8,1.4,1.2l-6.6,6.7c-1.4-1.4-2.8-2.4-4.3-3.2c-2.2-1-4.5-1.6-6.8-1.6c-1,0-2.1,0.1-3.1,0.4c-1,0.3-1.9,0.6-2.7,1
					c-2.3,1.4-3.4,3.2-3.4,5.5c0,1.4,0.5,2.6,1.4,3.6c0.7,0.8,1.6,1.5,2.8,2.1c1,0.5,2,0.9,3.1,1.2c1.1,0.3,2.1,0.6,3,0.8l0.9,0.2
					c0.3,0.1,0.8,0.3,1.5,0.5c0.7,0.2,1.6,0.5,2.6,0.9s2,0.9,3.2,1.5c1.2,0.6,2.3,1.2,3.5,2C209.8,556.6,212.3,560.5,212.3,565z"/>
				<path class="st16" d="M270.8,525.1c3.9,0,7.5,0.7,11,2.2c3.4,1.5,6.4,3.5,9,6.1c2.6,2.6,4.6,5.6,6,9c1.5,3.4,2.2,7.1,2.2,11
					s-0.7,7.5-2.2,11c-1.5,3.4-3.5,6.4-6,9s-5.6,4.6-9,6.1c-3.4,1.5-7.1,2.2-11,2.2s-7.5-0.7-11-2.2c-3.4-1.5-6.4-3.5-9-6.1
					c-2.6-2.6-4.6-5.6-6-9c-1.5-3.4-2.2-7.1-2.2-11s0.7-7.5,2.2-11c1.5-3.4,3.5-6.4,6-9c2.6-2.6,5.6-4.6,9-6.1
					C263.2,525.8,266.9,525.1,270.8,525.1z M270.8,534.4c-2.5,0-4.9,0.5-7.2,1.4c-2.3,1-4.3,2.3-6.1,4.2c-1.8,1.8-3.2,3.8-4.2,6.1
					c-1,2.3-1.4,4.7-1.4,7.2c0,2.5,0.5,4.9,1.4,7.3c1,2.3,2.3,4.4,4.2,6.2c1.8,1.8,3.8,3.2,6.1,4.1c2.3,0.9,4.7,1.4,7.2,1.4
					s5-0.5,7.3-1.4c2.3-0.9,4.3-2.3,6.2-4.1c1.8-1.8,3.2-3.9,4.1-6.2s1.4-4.7,1.4-7.3s-0.5-4.9-1.4-7.2c-0.9-2.3-2.3-4.3-4.1-6.1
					c-1.8-1.8-3.9-3.2-6.2-4.2C275.7,534.8,273.3,534.4,270.8,534.4z"/>
				<path class="st16" d="M360.6,571.2v9.3h-21.3H330v-9.3v-44.9h9.3v44.9H360.6z"/>
				<path class="st16" d="M436.5,526.2v32.6c0,3.2-0.6,6.1-1.8,8.9c-1.2,2.8-2.8,5.2-4.9,7.3c-2.1,2.1-4.5,3.7-7.3,4.9
					c-2.8,1.2-5.7,1.8-8.9,1.8s-6.1-0.6-8.9-1.8c-2.8-1.2-5.2-2.8-7.3-4.9c-2.1-2.1-3.7-4.5-4.9-7.3c-1.2-2.8-1.8-5.7-1.8-8.9v-32.6
					h9.3v32.6c0,1.8,0.3,3.5,1,5.2s1.7,3.1,3,4.4c1.3,1.3,2.8,2.3,4.4,2.9c1.6,0.7,3.3,1,5.2,1c3.7,0,6.9-1.3,9.5-3.9
					c1.3-1.3,2.3-2.8,3-4.4c0.7-1.6,1-3.3,1-5.2v-32.6L436.5,526.2L436.5,526.2z"/>
				<path class="st16" d="M507.9,535.5H492v45h-9.3v-45h-16v-9.3h16h9.3h15.9L507.9,535.5L507.9,535.5z"/>
				<path class="st16" d="M547.8,535.5v13.2H568l2.3,9.3h-22.6v13.2H575v9.3h-36.5v-54.3H575v9.3L547.8,535.5L547.8,535.5z"/>
				<path class="st16" d="M660.8,526.1v54.3h-9.3v-38.5l-17.9,27.7l-17.8-27.7v38.5h-9.3v-54.3h10.2l17,26.4l17.1-26.4H660.8z"/>
				<path class="st16" d="M701.9,535.5v13.2h20.2l2.3,9.3h-22.6v13.2h27.2v9.3h-36.5v-54.3h36.5v9.3L701.9,535.5L701.9,535.5z"/>
				<path class="st16" d="M801.6,526.1v54.3h-10.1l-21.8-37.1v37.1h-9.3v-54.3h10.1l21.8,37.1v-37.1H801.6z"/>
				<path class="st16" d="M871.6,565c0,2.5-0.4,4.8-1.2,6.9s-2,3.8-3.5,5.2c-1.5,1.4-3.4,2.5-5.5,3.3c-2.2,0.8-4.6,1.2-7.3,1.2
					c-4.3,0-8.1-0.7-11.5-2.1c-3.4-1.4-6.1-2.9-8.3-4.7l6.4-6.4c1.7,1.6,3.6,2.7,5.7,3.6c1.3,0.5,2.5,0.8,3.6,1
					c1.1,0.2,2.1,0.2,2.8,0.2c1.3,0,2.6-0.2,3.7-0.5c1.1-0.3,2.1-0.8,2.9-1.4c1.8-1.3,2.6-3,2.6-5.1c0-1.3-0.5-2.4-1.4-3.5
					c-0.7-0.8-1.7-1.5-2.8-2c-0.9-0.5-1.9-0.9-2.9-1.2c-1-0.3-2-0.6-2.8-0.8c-0.3-0.1-0.5-0.2-0.7-0.2c-0.2,0-0.4-0.1-0.5-0.2
					c-0.1,0-0.3-0.1-0.5-0.2c-1.1-0.3-2.7-0.8-4.7-1.6c-2-0.8-4.1-1.8-6.1-3.2c-4.7-3.2-7.1-7-7.1-11.6c0-3.1,0.5-5.6,1.6-7.7
					c1.1-2.1,2.4-3.8,4.2-5.1c1.7-1.3,3.6-2.3,5.7-2.8s4.2-0.8,6.2-0.8c3.7,0,6.8,0.4,9.4,1.3s4.6,1.8,6.1,2.6
					c0.8,0.5,1.4,0.9,2,1.4c0.5,0.4,1,0.8,1.4,1.2l-6.6,6.7c-1.4-1.4-2.8-2.4-4.3-3.2c-2.2-1-4.4-1.6-6.8-1.6c-1,0-2.1,0.1-3.1,0.4
					s-1.9,0.6-2.7,1c-2.3,1.4-3.4,3.2-3.4,5.5c0,1.4,0.5,2.6,1.4,3.6c0.7,0.8,1.6,1.5,2.8,2.1c1,0.5,2,0.9,3.1,1.2
					c1.1,0.3,2.1,0.6,3,0.8l0.9,0.2c0.3,0.1,0.8,0.3,1.5,0.5c0.7,0.2,1.6,0.5,2.6,0.9c1,0.4,2.1,0.9,3.2,1.5c1.2,0.6,2.3,1.2,3.4,2
					C869.1,556.6,871.6,560.5,871.6,565z"/>
				<path class="st16" d="M904.6,580.5v-9.3h9.3v9.3H904.6z"/>
				<path class="st16" d="M994.7,573.2c-2.6,2.6-5.6,4.6-9,6.1s-7.1,2.2-11,2.2c-3.9,0-7.5-0.7-11-2.2s-6.4-3.5-9-6.1
					c-2.6-2.6-4.6-5.6-6.1-9c-1.5-3.4-2.2-7.1-2.2-11s0.7-7.5,2.2-11s3.5-6.4,6.1-9c2.6-2.6,5.6-4.6,9-6.1c3.4-1.5,7.1-2.2,11-2.2
					c3.9,0,7.6,0.7,11,2.2s6.4,3.5,9,6.1l-6.6,6.6c-1.8-1.8-3.8-3.2-6.1-4.2c-2.3-1-4.7-1.4-7.3-1.4c-2.5,0-4.9,0.5-7.2,1.4
					c-2.3,1-4.3,2.3-6.1,4.2c-1.8,1.8-3.2,3.8-4.2,6.1c-1,2.3-1.4,4.7-1.4,7.2c0,2.5,0.5,4.9,1.4,7.3c1,2.3,2.3,4.4,4.2,6.2
					c1.8,1.8,3.8,3.2,6.1,4.1c2.3,0.9,4.7,1.4,7.2,1.4c2.6,0,5-0.5,7.3-1.4c2.3-0.9,4.3-2.3,6.1-4.1L994.7,573.2z"/>
				<path class="st16" d="M1048.4,525.1c3.9,0,7.5,0.7,11,2.2s6.4,3.5,9,6.1c2.6,2.6,4.6,5.6,6.1,9c1.5,3.4,2.2,7.1,2.2,11
					s-0.7,7.5-2.2,11s-3.5,6.4-6.1,9c-2.6,2.6-5.6,4.6-9,6.1c-3.4,1.5-7.1,2.2-11,2.2s-7.5-0.7-11-2.2s-6.4-3.5-9-6.1
					c-2.6-2.6-4.6-5.6-6.1-9c-1.5-3.4-2.2-7.1-2.2-11s0.7-7.5,2.2-11s3.5-6.4,6.1-9c2.6-2.6,5.6-4.6,9-6.1
					C1040.9,525.8,1044.5,525.1,1048.4,525.1z M1048.4,534.4c-2.5,0-4.9,0.5-7.2,1.4c-2.3,1-4.3,2.3-6.1,4.2
					c-1.8,1.8-3.2,3.8-4.2,6.1c-1,2.3-1.4,4.7-1.4,7.2c0,2.5,0.5,4.9,1.4,7.3c1,2.3,2.3,4.4,4.2,6.2c1.8,1.8,3.8,3.2,6.1,4.1
					c2.3,0.9,4.7,1.4,7.2,1.4c2.5,0,4.9-0.5,7.3-1.4c2.3-0.9,4.3-2.3,6.2-4.1c1.8-1.8,3.2-3.9,4.1-6.2c0.9-2.3,1.4-4.7,1.4-7.3
					s-0.5-4.9-1.4-7.2s-2.3-4.3-4.1-6.1c-1.8-1.8-3.9-3.2-6.2-4.2C1053.4,534.8,1051,534.4,1048.4,534.4z"/>
				<path class="st16" d="M1162,526.1v54.3h-9.3v-38.5l-17.9,27.7l-17.8-27.7v38.5h-9.3v-54.3h10.2l17,26.4l17.1-26.4H1162z"/>
			</g>
		</g>
		<g>
			<g>
				<g>
					<polygon class="st16" points="614.4,145.1 560,145.1 586.9,169.4 					"/>
				</g>
				<g>
					<g>
						<path class="st16" d="M658.8,132l-71.8-98l-61.2,84l15.9,13.3l45.4-62.3l56,76.2l-34.8,28.3l-21.2,17.3l-20.6-17.3L394.1,29.3
							v300.1l192.8,139.8l194.1-139.9V29.4L658.8,132z M414.8,73.8l88.6,74.9l-88.6,121.7V73.8z M760.4,73.7v196.8l-79.9-108.5
							l-15.9,13.3l102.1,138.8L586.9,443.9L408.4,314.2l110.8-152.1l48.4,39.6l-20.5,167.6l39.8,29.8l39.7-29.3l-19.3-168.8"/>
					</g>
				</g>
			</g>
		</g>
	</g>
</g>
</svg>
